LOG 2022-07-28 20:00:00.930 >> Alfastreet Account Server V4.24.7.0 DLL: Alfastreet Alfa Account V4.24.7.0 - AL000 602 1
BA  2022-07-28 20:00:12.693 >> Banknote COP 10,000.00
BA  2022-07-28 20:00:12.693 >> Banknote inserted: 10,000.00 (#4)
SAS 2022-07-28 20:00:13.503 >> Banknote accepted: 10,000.00
SAS 2022-07-28 20:00:13.735 >> SAS 1 Exception sent: 4F
SAS 2022-07-28 20:00:57.447 >> Game 312401: Bets: 18,800.00 Num: 1 Win: 28,800.00 Jackpot: 0.00 Tip: 0.00
SAS 2022-07-28 20:00:57.455 >> SAS 1 Exception sent: 7E
GM  2022-07-28 20:00:57.603 >> Game played: Position: 0 Selected: 1 ID: 312401 Bets: 18,800.00 Win: 28,800.00 Tip: 0.00 Reel stops: 1-1
GM  2022-07-28 20:00:57.625 >> Command from game : 01
SAS 2022-07-28 20:00:57.678 >> SAS 1 Exception sent: 7F
SAS 2022-07-28 20:01:56.683 >> Game 312402: Bets: 27,200.00 Num: 2 Win: 55,200.00 Jackpot: 0.00 Tip: 0.00
SAS 2022-07-28 20:01:56.709 >> SAS 1 Exception sent: 7E
GM  2022-07-28 20:01:56.884 >> Game played: Position: 0 Selected: 1 ID: 312402 Bets: 27,200.00 Win: 55,200.00 Tip: 0.00 Reel stops: 1-2
GM  2022-07-28 20:01:56.892 >> Command from game : 01
SAS 2022-07-28 20:01:57.176 >> SAS 1 Exception sent: 7F
SAS 2022-07-28 20:02:56.880 >> Game 312403: Bets: 31,000.00 Num: 30 Win: 0.00 Jackpot: 0.00 Tip: 0.00
GM  2022-07-28 20:02:57.059 >> Game played: Position: 0 Selected: 1 ID: 312403 Bets: 31,000.00 Win: 0.00 Tip: 0.00 Reel stops: 1-30
GM  2022-07-28 20:02:57.073 >> Command from game : 01
SAS 2022-07-28 20:02:57.149 >> SAS 1 Exception sent: 7E
SAS 2022-07-28 20:02:57.372 >> SAS 1 Exception sent: 7F
SAS 2022-07-28 20:03:57.485 >> Game 312404: Bets: 17,200.00 Num: 24 Win: 0.00 Jackpot: 0.00 Tip: 0.00
GM  2022-07-28 20:03:57.622 >> Game played: Position: 0 Selected: 1 ID: 312404 Bets: 17,200.00 Win: 0.00 Tip: 0.00 Reel stops: 1-24
GM  2022-07-28 20:03:57.630 >> Command from game : 01
SAS 2022-07-28 20:03:57.842 >> SAS 1 Exception sent: 7E
SAS 2022-07-28 20:03:58.066 >> SAS 1 Exception sent: 7F
BA  2022-07-28 20:04:09.575 >> Banknote COP 10,000.00
BA  2022-07-28 20:04:09.575 >> Banknote inserted: 10,000.00 (#4)
SAS 2022-07-28 20:04:10.578 >> Banknote accepted: 10,000.00
SAS 2022-07-28 20:04:10.933 >> SAS 1 Exception sent: 4F
SAS 2022-07-28 20:05:02.786 >> Game 312405: Bets: 19,800.00 Num: 3 Win: 0.00 Jackpot: 0.00 Tip: 0.00
GM  2022-07-28 20:05:02.941 >> Game played: Position: 0 Selected: 1 ID: 312405 Bets: 19,800.00 Win: 0.00 Tip: 0.00 Reel stops: 1-3
GM  2022-07-28 20:05:02.941 >> Command from game : 01
SAS 2022-07-28 20:05:03.061 >> SAS 1 Exception sent: 7E
SAS 2022-07-28 20:05:03.284 >> SAS 1 Exception sent: 7F
BA  2022-07-28 20:05:14.867 >> Banknote or Ticket rejected
SAS 2022-07-28 20:05:15.126 >> SAS 1 Exception sent: 2B
BA  2022-07-28 20:13:35.176 >> Banknote COP 10,000.00
BA  2022-07-28 20:13:35.176 >> Banknote inserted: 10,000.00 (#4)
SAS 2022-07-28 20:13:36.191 >> Banknote accepted: 10,000.00
SAS 2022-07-28 20:13:36.216 >> SAS 1 Exception sent: 4F
SAS 2022-07-28 20:14:52.092 >> Game 312414: Bets: 10,000.00 Num: 5 Win: 21,600.00 Jackpot: 0.00 Tip: 0.00
SAS 2022-07-28 20:14:52.226 >> SAS 1 Exception sent: 7E
GM  2022-07-28 20:14:52.273 >> Game played: Position: 0 Selected: 1 ID: 312414 Bets: 10,000.00 Win: 21,600.00 Tip: 0.00 Reel stops: 1-5
GM  2022-07-28 20:14:52.293 >> Command from game : 01
SAS 2022-07-28 20:14:52.677 >> SAS 1 Exception sent: 7F
SAS 2022-07-28 20:15:53.878 >> Game 312415: Bets: 18,600.00 Num: 9 Win: 0.00 Jackpot: 0.00 Tip: 0.00
SAS 2022-07-28 20:15:54.011 >> SAS 1 Exception sent: 7E
GM  2022-07-28 20:15:54.042 >> Game played: Position: 0 Selected: 1 ID: 312415 Bets: 18,600.00 Win: 0.00 Tip: 0.00 Reel stops: 1-9
GM  2022-07-28 20:15:54.042 >> Command from game : 01
SAS 2022-07-28 20:15:54.234 >> SAS 1 Exception sent: 7F
SAS 2022-07-28 20:16:57.378 >> Game 312416: Bets: 3,000.00 Num: 30 Win: 7,200.00 Jackpot: 0.00 Tip: 0.00
GM  2022-07-28 20:16:57.568 >> Game played: Position: 0 Selected: 1 ID: 312416 Bets: 3,000.00 Win: 7,200.00 Tip: 0.00 Reel stops: 1-30
GM  2022-07-28 20:16:57.569 >> Command from game : 01
SAS 2022-07-28 20:16:57.593 >> SAS 1 Exception sent: 7E
SAS 2022-07-28 20:16:58.060 >> SAS 1 Exception sent: 7F
SAS 2022-07-28 20:17:57.139 >> Game 312417: Bets: 7,200.00 Num: 34 Win: 0.00 Jackpot: 0.00 Tip: 0.00
GM  2022-07-28 20:17:57.337 >> Game played: Position: 0 Selected: 1 ID: 312417 Bets: 7,200.00 Win: 0.00 Tip: 0.00 Reel stops: 1-34
GM  2022-07-28 20:17:57.356 >> Command from game : 01
SAS 2022-07-28 20:17:57.528 >> SAS 1 Exception sent: 7E
SAS 2022-07-28 20:17:57.751 >> SAS 1 Exception sent: 7F
BA  2022-07-28 20:18:11.595 >> Banknote COP 10,000.00
BA  2022-07-28 20:18:11.595 >> Banknote inserted: 10,000.00 (#4)
SAS 2022-07-28 20:18:12.609 >> Banknote accepted: 10,000.00
SAS 2022-07-28 20:18:12.697 >> SAS 1 Exception sent: 4F
SAS 2022-07-28 20:19:02.494 >> Game 312418: Bets: 10,000.00 Num: 33 Win: 28,800.00 Jackpot: 0.00 Tip: 0.00
SAS 2022-07-28 20:19:02.590 >> SAS 1 Exception sent: 7E
SAS 2022-07-28 20:19:02.813 >> SAS 1 Exception sent: 7F
GM  2022-07-28 20:19:02.925 >> Game played: Position: 0 Selected: 1 ID: 312418 Bets: 10,000.00 Win: 28,800.00 Tip: 0.00 Reel stops: 1-33
GM  2022-07-28 20:19:02.947 >> Command from game : 01
SAS 2022-07-28 20:20:04.312 >> Game 312419: Bets: 18,800.00 Num: 8 Win: 0.00 Jackpot: 0.00 Tip: 0.00
SAS 2022-07-28 20:20:04.410 >> SAS 1 Exception sent: 7E
GM  2022-07-28 20:20:04.505 >> Game played: Position: 0 Selected: 1 ID: 312419 Bets: 18,800.00 Win: 0.00 Tip: 0.00 Reel stops: 1-8
GM  2022-07-28 20:20:04.514 >> Command from game : 01
SAS 2022-07-28 20:20:04.886 >> SAS 1 Exception sent: 7F
SAS 2022-07-28 20:21:11.881 >> Game 312420: Bets: 10,000.00 Num: 3 Win: 0.00 Jackpot: 0.00 Tip: 0.00
SAS 2022-07-28 20:21:12.065 >> SAS 1 Exception sent: 7E
GM  2022-07-28 20:21:12.333 >> Game played: Position: 0 Selected: 1 ID: 312420 Bets: 10,000.00 Win: 0.00 Tip: 0.00 Reel stops: 1-3
GM  2022-07-28 20:21:12.338 >> Command from game : 01
SAS 2022-07-28 20:21:12.515 >> SAS 1 Exception sent: 7F
BA  2022-07-28 20:21:45.369 >> Banknote COP 10,000.00
BA  2022-07-28 20:21:45.369 >> Banknote inserted: 10,000.00 (#4)
SAS 2022-07-28 20:21:46.191 >> Banknote accepted: 10,000.00
SAS 2022-07-28 20:21:46.618 >> SAS 1 Exception sent: 4F
SAS 2022-07-28 20:23:13.010 >> Game 312422: Bets: 10,000.00 Num: 14 Win: 0.00 Jackpot: 0.00 Tip: 0.00
SAS 2022-07-28 20:23:13.097 >> SAS 1 Exception sent: 7E
GM  2022-07-28 20:23:13.456 >> Game played: Position: 0 Selected: 1 ID: 312422 Bets: 10,000.00 Win: 0.00 Tip: 0.00 Reel stops: 1-14
GM  2022-07-28 20:23:13.486 >> Command from game : 01
SAS 2022-07-28 20:23:13.547 >> SAS 1 Exception sent: 7F
BA  2022-07-28 20:23:25.757 >> Banknote COP 10,000.00
BA  2022-07-28 20:23:25.757 >> Banknote inserted: 10,000.00 (#4)
SAS 2022-07-28 20:23:26.770 >> Banknote accepted: 10,000.00
SAS 2022-07-28 20:23:26.791 >> SAS 1 Exception sent: 4F
SAS 2022-07-28 20:25:15.067 >> Game 312424: Bets: 10,000.00 Num: 23 Win: 0.00 Jackpot: 0.00 Tip: 0.00
GM  2022-07-28 20:25:15.254 >> Game played: Position: 0 Selected: 1 ID: 312424 Bets: 10,000.00 Win: 0.00 Tip: 0.00 Reel stops: 1-23
GM  2022-07-28 20:25:15.254 >> Command from game : 01
SAS 2022-07-28 20:25:15.430 >> SAS 1 Exception sent: 7E
SAS 2022-07-28 20:25:15.880 >> SAS 1 Exception sent: 7F
BA  2022-07-28 20:25:41.025 >> Banknote COP 20,000.00
BA  2022-07-28 20:25:41.025 >> Banknote inserted: 20,000.00 (#5)
SAS 2022-07-28 20:25:42.041 >> Banknote accepted: 20,000.00
SAS 2022-07-28 20:25:42.101 >> SAS 1 Exception sent: 4F
SAS 2022-07-28 20:26:14.452 >> Game 312425: Bets: 13,600.00 Num: 4 Win: 0.00 Jackpot: 0.00 Tip: 0.00
SAS 2022-07-28 20:26:14.471 >> SAS 1 Exception sent: 7E
GM  2022-07-28 20:26:14.624 >> Game played: Position: 0 Selected: 1 ID: 312425 Bets: 13,600.00 Win: 0.00 Tip: 0.00 Reel stops: 1-4
GM  2022-07-28 20:26:14.624 >> Command from game : 01
SAS 2022-07-28 20:26:14.924 >> SAS 1 Exception sent: 7F
SAS 2022-07-28 20:27:16.948 >> Game 312426: Bets: 6,400.00 Num: 36 Win: 32,400.00 Jackpot: 0.00 Tip: 0.00
SAS 2022-07-28 20:27:16.972 >> SAS 1 Exception sent: 7E
GM  2022-07-28 20:27:17.120 >> Game played: Position: 0 Selected: 1 ID: 312426 Bets: 6,400.00 Win: 32,400.00 Tip: 0.00 Reel stops: 1-36
GM  2022-07-28 20:27:17.136 >> Command from game : 01
SAS 2022-07-28 20:27:17.423 >> SAS 1 Exception sent: 7F
SAS 2022-07-28 20:28:16.083 >> Game 312427: Bets: 20,000.00 Num: 21 Win: 0.00 Jackpot: 0.00 Tip: 0.00
SAS 2022-07-28 20:28:16.237 >> SAS 1 Exception sent: 7E
GM  2022-07-28 20:28:16.243 >> Game played: Position: 0 Selected: 1 ID: 312427 Bets: 20,000.00 Win: 0.00 Tip: 0.00 Reel stops: 1-21
GM  2022-07-28 20:28:16.255 >> Command from game : 01
SAS 2022-07-28 20:28:16.705 >> SAS 1 Exception sent: 7F
SAS 2022-07-28 20:29:17.732 >> Game 312428: Bets: 12,400.00 Num: 3 Win: 14,400.00 Jackpot: 0.00 Tip: 0.00
SAS 2022-07-28 20:29:17.778 >> SAS 1 Exception sent: 7E
GM  2022-07-28 20:29:17.891 >> Game played: Position: 0 Selected: 1 ID: 312428 Bets: 12,400.00 Win: 14,400.00 Tip: 0.00 Reel stops: 1-3
GM  2022-07-28 20:29:17.902 >> Command from game : 01
SAS 2022-07-28 20:29:18.231 >> SAS 1 Exception sent: 7F
SAS 2022-07-28 20:30:17.951 >> Game 312429: Bets: 14,400.00 Num: 28 Win: 0.00 Jackpot: 0.00 Tip: 0.00
GM  2022-07-28 20:30:18.189 >> Game played: Position: 0 Selected: 1 ID: 312429 Bets: 14,400.00 Win: 0.00 Tip: 0.00 Reel stops: 1-28
GM  2022-07-28 20:30:18.189 >> Command from game : 01
SAS 2022-07-28 20:30:18.371 >> SAS 1 Exception sent: 7E
SAS 2022-07-28 20:30:18.594 >> SAS 1 Exception sent: 7F
BA  2022-07-28 20:31:39.172 >> Banknote COP 20,000.00
BA  2022-07-28 20:31:39.172 >> Banknote inserted: 20,000.00 (#5)
SAS 2022-07-28 20:31:40.186 >> Banknote accepted: 20,000.00
SAS 2022-07-28 20:31:40.413 >> SAS 1 Exception sent: 4F
SAS 2022-07-28 20:32:21.016 >> Game 312431: Bets: 16,000.00 Num: 31 Win: 28,800.00 Jackpot: 0.00 Tip: 0.00
GM  2022-07-28 20:32:21.167 >> Game played: Position: 0 Selected: 1 ID: 312431 Bets: 16,000.00 Win: 28,800.00 Tip: 0.00 Reel stops: 1-31
GM  2022-07-28 20:32:21.173 >> Command from game : 01
SAS 2022-07-28 20:32:21.283 >> SAS 1 Exception sent: 7E
SAS 2022-07-28 20:32:21.782 >> SAS 1 Exception sent: 7F
SAS 2022-07-28 20:33:21.933 >> Game 312432: Bets: 21,000.00 Num: 12 Win: 36,000.00 Jackpot: 0.00 Tip: 0.00
GM  2022-07-28 20:33:22.089 >> Game played: Position: 0 Selected: 1 ID: 312432 Bets: 21,000.00 Win: 36,000.00 Tip: 0.00 Reel stops: 1-12
GM  2022-07-28 20:33:22.100 >> Command from game : 01
SAS 2022-07-28 20:33:22.380 >> SAS 1 Exception sent: 7E
SAS 2022-07-28 20:33:22.603 >> SAS 1 Exception sent: 7F
SAS 2022-07-28 20:34:28.394 >> Game 312433: Bets: 24,800.00 Num: 22 Win: 21,600.00 Jackpot: 0.00 Tip: 0.00
SAS 2022-07-28 20:34:28.530 >> SAS 1 Exception sent: 7E
GM  2022-07-28 20:34:28.551 >> Game played: Position: 0 Selected: 1 ID: 312433 Bets: 24,800.00 Win: 21,600.00 Tip: 0.00 Reel stops: 1-22
GM  2022-07-28 20:34:28.551 >> Command from game : 01
SAS 2022-07-28 20:34:28.753 >> SAS 1 Exception sent: 7F
SAS 2022-07-28 20:35:30.355 >> Game 312434: Bets: 27,800.00 Num: 34 Win: 39,600.00 Jackpot: 0.00 Tip: 0.00
GM  2022-07-28 20:35:30.544 >> Game played: Position: 0 Selected: 1 ID: 312434 Bets: 27,800.00 Win: 39,600.00 Tip: 0.00 Reel stops: 1-34
GM  2022-07-28 20:35:30.554 >> Command from game : 01
SAS 2022-07-28 20:35:30.701 >> SAS 1 Exception sent: 7E
SAS 2022-07-28 20:35:30.924 >> SAS 1 Exception sent: 7F
GM  2022-07-28 20:35:39.724 >> Payout request: 56,400.00 / 0.00 / 0.00
SAS 2022-07-28 20:35:39.724 >> Payout initiated by player: 56,400.00 / 0.00 / 0.00
SAS 2022-07-28 20:35:39.724 >> Handpay init Amount: 56,400.00/0.00/0.00
SAS 2022-07-28 20:35:39.798 >> Initiate ticket (0) Amount: 56,400.00
SAS 2022-07-28 20:35:39.799 >> Send ticket data to printer (0): 00-xxxx-xxxx-xxxx-5960 Amount: 56,400.00
PRN 2022-07-28 20:35:39.799 >> Ticket prepared: 00-xxxx-xxxx-xxxx-5960 Amount: 56,400.00
SAS 2022-07-28 20:35:39.808 >> SAS 1 Exception sent: 66
SAS 2022-07-28 20:35:39.832 >> Handpay redirected to Ticket Printer.
PRN 2022-07-28 20:35:40.133 >> Ticket print commmand sent
PRN 2022-07-28 20:35:40.240 >> Ticket printing
SAS 2022-07-28 20:35:40.351 >> Ticket #248 printed: 00-xxxx-xxxx-xxxx-5960 Amount: 56,400.00
SAS 2022-07-28 20:35:40.708 >> SAS 1 Exception sent: 3D
BA  2022-07-28 20:35:50.048 >> Banknote COP 20,000.00
BA  2022-07-28 20:35:50.048 >> Banknote inserted: 20,000.00 (#5)
SAS 2022-07-28 20:35:51.054 >> Banknote accepted: 20,000.00
SAS 2022-07-28 20:35:51.260 >> SAS 1 Exception sent: 4F
SAS 2022-07-28 20:36:39.939 >> Game 312435: Bets: 18,400.00 Num: 22 Win: 21,600.00 Jackpot: 0.00 Tip: 0.00
SAS 2022-07-28 20:36:40.001 >> SAS 1 Exception sent: 7E
GM  2022-07-28 20:36:40.088 >> Game played: Position: 0 Selected: 1 ID: 312435 Bets: 18,400.00 Win: 21,600.00 Tip: 0.00 Reel stops: 1-22
GM  2022-07-28 20:36:40.094 >> Command from game : 01
SAS 2022-07-28 20:36:40.225 >> SAS 1 Exception sent: 7F
SAS 2022-07-28 20:37:40.558 >> Game 312436: Bets: 23,200.00 Num: 25 Win: 28,800.00 Jackpot: 0.00 Tip: 0.00
SAS 2022-07-28 20:37:40.615 >> SAS 1 Exception sent: 7E
GM  2022-07-28 20:37:40.709 >> Game played: Position: 0 Selected: 1 ID: 312436 Bets: 23,200.00 Win: 28,800.00 Tip: 0.00 Reel stops: 1-25
GM  2022-07-28 20:37:40.718 >> Command from game : 01
SAS 2022-07-28 20:37:40.838 >> SAS 1 Exception sent: 7F
SAS 2022-07-28 20:38:41.276 >> Game 312437: Bets: 28,800.00 Num: 34 Win: 39,600.00 Jackpot: 0.00 Tip: 0.00
SAS 2022-07-28 20:38:41.286 >> SAS 1 Exception sent: 7E
GM  2022-07-28 20:38:41.470 >> Game played: Position: 0 Selected: 1 ID: 312437 Bets: 28,800.00 Win: 39,600.00 Tip: 0.00 Reel stops: 1-34
GM  2022-07-28 20:38:41.474 >> Command from game : 01
SAS 2022-07-28 20:38:41.510 >> SAS 1 Exception sent: 7F
SAS 2022-07-28 20:39:48.027 >> Game 312438: Bets: 34,600.00 Num: 1 Win: 21,600.00 Jackpot: 0.00 Tip: 0.00
GM  2022-07-28 20:39:48.191 >> Game played: Position: 0 Selected: 1 ID: 312438 Bets: 34,600.00 Win: 21,600.00 Tip: 0.00 Reel stops: 1-1
GM  2022-07-28 20:39:48.224 >> Command from game : 01
SAS 2022-07-28 20:39:48.455 >> SAS 1 Exception sent: 7E
SAS 2022-07-28 20:39:48.680 >> SAS 1 Exception sent: 7F
SAS 2022-07-28 20:41:03.319 >> Game 312439: Bets: 17,200.00 Num: 30 Win: 0.00 Jackpot: 0.00 Tip: 0.00
GM  2022-07-28 20:41:03.532 >> Game played: Position: 0 Selected: 1 ID: 312439 Bets: 17,200.00 Win: 0.00 Tip: 0.00 Reel stops: 1-30
GM  2022-07-28 20:41:03.533 >> Command from game : 01
SAS 2022-07-28 20:41:03.591 >> SAS 1 Exception sent: 7E
SAS 2022-07-28 20:41:03.815 >> SAS 1 Exception sent: 7F
SAS 2022-07-28 20:42:09.538 >> Game 312440: Bets: 9,400.00 Num: 22 Win: 14,400.00 Jackpot: 0.00 Tip: 0.00
GM  2022-07-28 20:42:09.721 >> Game played: Position: 0 Selected: 1 ID: 312440 Bets: 9,400.00 Win: 14,400.00 Tip: 0.00 Reel stops: 1-22
GM  2022-07-28 20:42:09.728 >> Command from game : 01
SAS 2022-07-28 20:42:09.749 >> SAS 1 Exception sent: 7E
SAS 2022-07-28 20:42:10.217 >> SAS 1 Exception sent: 7F
SAS 2022-07-28 20:43:10.495 >> Game 312441: Bets: 14,400.00 Num: 19 Win: 0.00 Jackpot: 0.00 Tip: 0.00
SAS 2022-07-28 20:43:10.558 >> SAS 1 Exception sent: 7E
GM  2022-07-28 20:43:10.672 >> Game played: Position: 0 Selected: 1 ID: 312441 Bets: 14,400.00 Win: 0.00 Tip: 0.00 Reel stops: 1-19
GM  2022-07-28 20:43:10.678 >> Command from game : 01
SAS 2022-07-28 20:43:11.014 >> SAS 1 Exception sent: 7F
BA  2022-07-28 20:45:16.675 >> Banknote COP 2,000.00
BA  2022-07-28 20:45:16.675 >> Banknote inserted: 2,000.00 (#2)
SAS 2022-07-28 20:45:17.689 >> Banknote accepted: 2,000.00
SAS 2022-07-28 20:45:17.857 >> SAS 1 Exception sent: 4F
BA  2022-07-28 20:45:22.961 >> Banknote COP 5,000.00
BA  2022-07-28 20:45:22.961 >> Banknote inserted: 5,000.00 (#3)
SAS 2022-07-28 20:45:23.965 >> Banknote accepted: 5,000.00
SAS 2022-07-28 20:45:24.237 >> SAS 1 Exception sent: 4F
SAS 2022-07-28 20:46:31.131 >> Game 312444: Bets: 7,000.00 Num: 10 Win: 10,800.00 Jackpot: 0.00 Tip: 0.00
GM  2022-07-28 20:46:31.374 >> Game played: Position: 0 Selected: 1 ID: 312444 Bets: 7,000.00 Win: 10,800.00 Tip: 0.00 Reel stops: 1-10
GM  2022-07-28 20:46:31.374 >> Command from game : 01
SAS 2022-07-28 20:46:31.482 >> SAS 1 Exception sent: 7E
SAS 2022-07-28 20:46:31.933 >> SAS 1 Exception sent: 7F
SAS 2022-07-28 20:47:32.711 >> Game 312445: Bets: 10,800.00 Num: 5 Win: 0.00 Jackpot: 0.00 Tip: 0.00
SAS 2022-07-28 20:47:32.783 >> SAS 1 Exception sent: 7E
GM  2022-07-28 20:47:32.887 >> Game played: Position: 0 Selected: 1 ID: 312445 Bets: 10,800.00 Win: 0.00 Tip: 0.00 Reel stops: 1-5
GM  2022-07-28 20:47:32.935 >> Command from game : 01
SAS 2022-07-28 20:47:33.006 >> SAS 1 Exception sent: 7F
BA  2022-07-28 20:49:13.130 >> Banknote COP 10,000.00
BA  2022-07-28 20:49:13.130 >> Banknote inserted: 10,000.00 (#4)
SAS 2022-07-28 20:49:14.146 >> Banknote accepted: 10,000.00
SAS 2022-07-28 20:49:14.406 >> SAS 1 Exception sent: 4F
SAS 2022-07-28 20:50:36.014 >> Game 312448: Bets: 8,800.00 Num: 0 Win: 14,400.00 Jackpot: 0.00 Tip: 0.00
SAS 2022-07-28 20:50:36.015 >> SAS 1 Exception sent: 7E
GM  2022-07-28 20:50:36.180 >> Game played: Position: 0 Selected: 1 ID: 312448 Bets: 8,800.00 Win: 14,400.00 Tip: 0.00 Reel stops: 1-0
GM  2022-07-28 20:50:36.196 >> Command from game : 01
SAS 2022-07-28 20:50:36.238 >> SAS 1 Exception sent: 7F
SAS 2022-07-28 20:51:34.453 >> Game 312449: Bets: 14,600.00 Num: 14 Win: 18,000.00 Jackpot: 0.00 Tip: 0.00
GM  2022-07-28 20:51:34.640 >> Game played: Position: 0 Selected: 1 ID: 312449 Bets: 14,600.00 Win: 18,000.00 Tip: 0.00 Reel stops: 1-14
GM  2022-07-28 20:51:34.651 >> Command from game : 01
SAS 2022-07-28 20:51:34.659 >> SAS 1 Exception sent: 7E
SAS 2022-07-28 20:51:34.882 >> SAS 1 Exception sent: 7F
SAS 2022-07-28 20:52:36.729 >> Game 312450: Bets: 19,000.00 Num: 10 Win: 28,800.00 Jackpot: 0.00 Tip: 0.00
GM  2022-07-28 20:52:36.929 >> Game played: Position: 0 Selected: 1 ID: 312450 Bets: 19,000.00 Win: 28,800.00 Tip: 0.00 Reel stops: 1-10
GM  2022-07-28 20:52:36.940 >> Command from game : 01
SAS 2022-07-28 20:52:37.048 >> SAS 1 Exception sent: 7E
SAS 2022-07-28 20:52:37.271 >> SAS 1 Exception sent: 7F
SAS 2022-07-28 20:53:36.186 >> Game 312451: Bets: 28,000.00 Num: 7 Win: 28,800.00 Jackpot: 0.00 Tip: 0.00
GM  2022-07-28 20:53:36.333 >> Game played: Position: 0 Selected: 1 ID: 312451 Bets: 28,000.00 Win: 28,800.00 Tip: 0.00 Reel stops: 1-7
GM  2022-07-28 20:53:36.341 >> Command from game : 01
SAS 2022-07-28 20:53:36.344 >> SAS 1 Exception sent: 7E
SAS 2022-07-28 20:53:36.567 >> SAS 1 Exception sent: 7F
SAS 2022-07-28 20:54:36.533 >> Game 312452: Bets: 29,600.00 Num: 23 Win: 36,000.00 Jackpot: 0.00 Tip: 0.00
GM  2022-07-28 20:54:36.704 >> Game played: Position: 0 Selected: 1 ID: 312452 Bets: 29,600.00 Win: 36,000.00 Tip: 0.00 Reel stops: 1-23
SAS 2022-07-28 20:54:36.769 >> SAS 1 Exception sent: 7E
GM  2022-07-28 20:54:36.780 >> Command from game : 01
SAS 2022-07-28 20:54:36.992 >> SAS 1 Exception sent: 7F
SAS 2022-07-28 20:55:36.011 >> Game 312453: Bets: 36,000.00 Num: 11 Win: 46,800.00 Jackpot: 0.00 Tip: 0.00
SAS 2022-07-28 20:55:36.177 >> SAS 1 Exception sent: 7E
GM  2022-07-28 20:55:36.210 >> Game played: Position: 0 Selected: 1 ID: 312453 Bets: 36,000.00 Win: 46,800.00 Tip: 0.00 Reel stops: 1-11
GM  2022-07-28 20:55:36.221 >> Command from game : 01
SAS 2022-07-28 20:55:36.399 >> SAS 1 Exception sent: 7F
SAS 2022-07-28 20:56:36.979 >> Game 312454: Bets: 46,600.00 Num: 3 Win: 57,600.00 Jackpot: 0.00 Tip: 0.00
SAS 2022-07-28 20:56:37.426 >> SAS 1 Exception sent: 7E
GM  2022-07-28 20:56:37.437 >> Game played: Position: 0 Selected: 1 ID: 312454 Bets: 46,600.00 Win: 57,600.00 Tip: 0.00 Reel stops: 1-3
GM  2022-07-28 20:56:37.462 >> Command from game : 01
SAS 2022-07-28 20:56:37.902 >> SAS 1 Exception sent: 7F
GM  2022-07-28 20:57:04.510 >> Payout request: 57,800.00 / 0.00 / 0.00
SAS 2022-07-28 20:57:04.510 >> Payout initiated by player: 57,800.00 / 0.00 / 0.00
SAS 2022-07-28 20:57:04.510 >> Handpay init Amount: 57,800.00/0.00/0.00
SAS 2022-07-28 20:57:04.516 >> SAS 1 Exception sent: 66
SAS 2022-07-28 20:57:04.569 >> Initiate ticket (0) Amount: 57,800.00
SAS 2022-07-28 20:57:04.569 >> Send ticket data to printer (0): 00-xxxx-xxxx-xxxx-1184 Amount: 57,800.00
PRN 2022-07-28 20:57:04.569 >> Ticket prepared: 00-xxxx-xxxx-xxxx-1184 Amount: 57,800.00
SAS 2022-07-28 20:57:04.592 >> Handpay redirected to Ticket Printer.
PRN 2022-07-28 20:57:05.210 >> Ticket print commmand sent
PRN 2022-07-28 20:57:05.317 >> Ticket printing
SAS 2022-07-28 20:57:05.424 >> Ticket #249 printed: 00-xxxx-xxxx-xxxx-1184 Amount: 57,800.00
SAS 2022-07-28 20:57:05.429 >> SAS 1 Exception sent: 3D
