AAS 2022-09-29 22:02:20.287 >> FoMain
AAS 2022-09-29 22:02:23.929 >> IO board version: io_eK_4.2 
DBG 2022-09-29 22:02:24.203 >> AAS Activated from Authorization Server (CC)
AAS 2022-09-29 22:02:24.207 >> Alfastreet Account Server V4.24.7.0 DLL: Alfastreet Alfa Account V4.24.7.0
GM  2022-09-29 22:02:24.207 >> Waiting for game client ...
AAS 2022-09-29 22:02:25.129 >> IO board calculated CRC: F472490842919269C16EC12F14711936
AAS 2022-09-29 22:02:40.310 >> AAS initialization
DBG 2022-09-29 22:02:40.312 >> Account_DefSendState start...
AAS 2022-09-29 22:02:40.411 >> Door 1 opened
AAS 2022-09-29 22:02:40.411 >> Door 3 opened
AAS 2022-09-29 22:02:40.411 >> Door 4 opened
AAS 2022-09-29 22:02:40.411 >> Door 5 opened
AAS 2022-09-29 22:02:40.411 >> Door 7 opened
