LOG 2022-10-10 12:00:00.147 >> Alfastreet Account Server V4.24.7.0 DLL: Alfastreet Alfa Account V4.24.7.0 - AL000 602 1
BA  2022-10-10 12:00:20.507 >> Banknote COP 50,000.00
BA  2022-10-10 12:00:20.507 >> Banknote inserted: 50,000.00 (#6)
SAS 2022-10-10 12:00:21.316 >> Banknote accepted: 50,000.00
SAS 2022-10-10 12:00:21.323 >> SAS 1 Exception sent: 4F
SAS 2022-10-10 12:01:11.012 >> Game 341331: Bets: 50,000.00 Num: 15 Win: 36,000.00 Jackpot: 0.00 Tip: 0.00
SAS 2022-10-10 12:01:11.170 >> SAS 1 Exception sent: 7E
GM  2022-10-10 12:01:11.171 >> Game played: Position: 0 Selected: 1 ID: 341331 Bets: 50,000.00 Win: 36,000.00 Tip: 0.00 Reel stops: 1-15
GM  2022-10-10 12:01:11.171 >> Command from game : 01
SAS 2022-10-10 12:01:11.397 >> SAS 1 Exception sent: 7F
BA  2022-10-10 12:01:35.743 >> Banknote COP 50,000.00
BA  2022-10-10 12:01:35.743 >> Banknote inserted: 50,000.00 (#6)
SAS 2022-10-10 12:01:36.768 >> Banknote accepted: 50,000.00
SAS 2022-10-10 12:01:37.052 >> SAS 1 Exception sent: 4F
SAS 2022-10-10 12:02:17.996 >> Game 341332: Bets: 66,000.00 Num: 16 Win: 36,000.00 Jackpot: 0.00 Tip: 0.00
SAS 2022-10-10 12:02:18.042 >> SAS 1 Exception sent: 7E
GM  2022-10-10 12:02:18.464 >> Game played: Position: 0 Selected: 1 ID: 341332 Bets: 66,000.00 Win: 36,000.00 Tip: 0.00 Reel stops: 1-16
GM  2022-10-10 12:02:18.485 >> Command from game : 01
SAS 2022-10-10 12:02:18.492 >> SAS 1 Exception sent: 7F
SAS 2022-10-10 12:03:17.048 >> Game 341333: Bets: 36,000.00 Num: 32 Win: 36,000.00 Jackpot: 0.00 Tip: 0.00
SAS 2022-10-10 12:03:17.252 >> SAS 1 Exception sent: 7E
GM  2022-10-10 12:03:17.322 >> Game played: Position: 0 Selected: 1 ID: 341333 Bets: 36,000.00 Win: 36,000.00 Tip: 0.00 Reel stops: 1-32
GM  2022-10-10 12:03:17.322 >> Command from game : 01
SAS 2022-10-10 12:03:17.475 >> SAS 1 Exception sent: 7F
SAS 2022-10-10 12:04:19.664 >> Game 341334: Bets: 56,000.00 Num: 22 Win: 36,000.00 Jackpot: 0.00 Tip: 0.00
SAS 2022-10-10 12:04:19.692 >> SAS 1 Exception sent: 7E
GM  2022-10-10 12:04:19.844 >> Game played: Position: 0 Selected: 1 ID: 341334 Bets: 56,000.00 Win: 36,000.00 Tip: 0.00 Reel stops: 1-22
GM  2022-10-10 12:04:19.862 >> Command from game : 01
SAS 2022-10-10 12:04:19.916 >> SAS 1 Exception sent: 7F
SAS 2022-10-10 12:05:21.480 >> Game 341335: Bets: 36,000.00 Num: 10 Win: 0.00 Jackpot: 0.00 Tip: 0.00
GM  2022-10-10 12:05:21.657 >> Game played: Position: 0 Selected: 1 ID: 341335 Bets: 36,000.00 Win: 0.00 Tip: 0.00 Reel stops: 1-10
GM  2022-10-10 12:05:21.665 >> Command from game : 01
SAS 2022-10-10 12:05:21.879 >> SAS 1 Exception sent: 7E
SAS 2022-10-10 12:05:22.102 >> SAS 1 Exception sent: 7F
GM  2022-10-10 12:24:46.564 >> Player denomination 0: 200.00
GM  2022-10-10 12:24:46.564 >> Player denomination 1: 100.00
GM  2022-10-10 12:24:46.564 >> Player denomination 2: 200.00
GM  2022-10-10 12:24:46.564 >> Player denomination 3: 500.00
GM  2022-10-10 12:24:46.564 >> Player denomination 4: 1,000.00
GM  2022-10-10 12:24:46.564 >> Player denomination 5: 0.00
GM  2022-10-10 12:24:46.564 >> Player denomination 6: 0.00
GM  2022-10-10 12:24:46.564 >> Player denomination 7: 0.00
GM  2022-10-10 12:24:46.564 >> Player denomination 8: 0.00
GM  2022-10-10 12:24:46.564 >> Player denomination 9: 0.00
GM  2022-10-10 12:24:46.564 >> Player denomination 10: 0.00
