LOG 2022-08-23 15:00:00.039 >> Alfastreet Account Server V4.24.7.0 DLL: Alfastreet Alfa Account V4.24.7.0 - AL000 602 1
GM  2022-08-23 15:18:43.678 >> Player denomination 0: 200.00
GM  2022-08-23 15:18:43.678 >> Player denomination 1: 100.00
GM  2022-08-23 15:18:43.678 >> Player denomination 2: 200.00
GM  2022-08-23 15:18:43.678 >> Player denomination 3: 500.00
GM  2022-08-23 15:18:43.678 >> Player denomination 4: 1,000.00
GM  2022-08-23 15:18:43.678 >> Player denomination 5: 0.00
GM  2022-08-23 15:18:43.678 >> Player denomination 6: 0.00
GM  2022-08-23 15:18:43.678 >> Player denomination 7: 0.00
GM  2022-08-23 15:18:43.678 >> Player denomination 8: 0.00
GM  2022-08-23 15:18:43.678 >> Player denomination 9: 0.00
GM  2022-08-23 15:18:43.678 >> Player denomination 10: 0.00
