LOG 2022-10-29 12:00:00.659 >> Alfastreet Account Server V4.24.7.0 DLL: Alfastreet Alfa Account V4.24.7.0 - AL000 602 1
AAS 2022-10-29 12:00:28.959 >> Key  3 inserted
GM  2022-10-29 12:00:28.960 >> BA enable: 1
AAS 2022-10-29 12:00:29.400 >> Key  3 removed
GM  2022-10-29 12:31:28.482 >> Player denomination 0: 200.00
GM  2022-10-29 12:31:28.482 >> Player denomination 1: 100.00
GM  2022-10-29 12:31:28.482 >> Player denomination 2: 200.00
GM  2022-10-29 12:31:28.482 >> Player denomination 3: 500.00
GM  2022-10-29 12:31:28.482 >> Player denomination 4: 1,000.00
GM  2022-10-29 12:31:28.482 >> Player denomination 5: 0.00
GM  2022-10-29 12:31:28.482 >> Player denomination 6: 0.00
GM  2022-10-29 12:31:28.482 >> Player denomination 7: 0.00
GM  2022-10-29 12:31:28.482 >> Player denomination 8: 0.00
GM  2022-10-29 12:31:28.482 >> Player denomination 9: 0.00
GM  2022-10-29 12:31:28.482 >> Player denomination 10: 0.00
BA  2022-10-29 12:36:11.648 >> Banknote COP 50,000.00
BA  2022-10-29 12:36:11.648 >> Banknote inserted: 50,000.00 (#6)
SAS 2022-10-29 12:36:13.068 >> Banknote accepted: 50,000.00
SAS 2022-10-29 12:36:13.400 >> SAS 1 Exception sent: 4F
SAS 2022-10-29 12:37:10.345 >> Game 349342: Bets: 50,000.00 Num: 12 Win: 0.00 Jackpot: 0.00 Tip: 0.00
GM  2022-10-29 12:37:10.502 >> Game played: Position: 0 Selected: 1 ID: 349342 Bets: 50,000.00 Win: 0.00 Tip: 0.00 Reel stops: 1-12
GM  2022-10-29 12:37:10.526 >> Command from game : 01
SAS 2022-10-29 12:37:10.596 >> SAS 1 Exception sent: 7E
SAS 2022-10-29 12:37:11.047 >> SAS 1 Exception sent: 7F
BA  2022-10-29 12:37:25.876 >> Banknote COP 50,000.00
BA  2022-10-29 12:37:25.876 >> Banknote inserted: 50,000.00 (#6)
SAS 2022-10-29 12:37:26.889 >> Banknote accepted: 50,000.00
SAS 2022-10-29 12:37:27.256 >> SAS 1 Exception sent: 4F
SAS 2022-10-29 12:38:30.608 >> Game 349343: Bets: 50,000.00 Num: 37 Win: 36,000.00 Jackpot: 0.00 Tip: 0.00
GM  2022-10-29 12:38:30.759 >> Game played: Position: 0 Selected: 1 ID: 349343 Bets: 50,000.00 Win: 36,000.00 Tip: 0.00 Reel stops: 1-37
GM  2022-10-29 12:38:30.769 >> Command from game : 01
SAS 2022-10-29 12:38:30.786 >> SAS 1 Exception sent: 7E
SAS 2022-10-29 12:38:31.008 >> SAS 1 Exception sent: 7F
SAS 2022-10-29 12:39:31.761 >> Game 349344: Bets: 36,000.00 Num: 30 Win: 72,000.00 Jackpot: 0.00 Tip: 0.00
GM  2022-10-29 12:39:31.931 >> Game played: Position: 0 Selected: 1 ID: 349344 Bets: 36,000.00 Win: 72,000.00 Tip: 0.00 Reel stops: 1-30
GM  2022-10-29 12:39:31.931 >> Command from game : 01
SAS 2022-10-29 12:39:31.983 >> SAS 1 Exception sent: 7E
SAS 2022-10-29 12:39:32.451 >> SAS 1 Exception sent: 7F
SAS 2022-10-29 12:40:49.610 >> Game 349345: Bets: 52,000.00 Num: 9 Win: 0.00 Jackpot: 0.00 Tip: 0.00
GM  2022-10-29 12:40:49.750 >> Game played: Position: 0 Selected: 1 ID: 349345 Bets: 52,000.00 Win: 0.00 Tip: 0.00 Reel stops: 1-9
GM  2022-10-29 12:40:49.760 >> Command from game : 01
SAS 2022-10-29 12:40:49.892 >> SAS 1 Exception sent: 7E
SAS 2022-10-29 12:40:50.344 >> SAS 1 Exception sent: 7F
SAS 2022-10-29 12:44:27.576 >> Game 349346: Bets: 20,000.00 Num: 8 Win: 36,000.00 Jackpot: 0.00 Tip: 0.00
SAS 2022-10-29 12:44:27.683 >> SAS 1 Exception sent: 7E
GM  2022-10-29 12:44:27.778 >> Game played: Position: 0 Selected: 1 ID: 349346 Bets: 20,000.00 Win: 36,000.00 Tip: 0.00 Reel stops: 1-8
GM  2022-10-29 12:44:27.788 >> Command from game : 01
SAS 2022-10-29 12:44:27.906 >> SAS 1 Exception sent: 7F
SAS 2022-10-29 12:45:28.732 >> Game 349347: Bets: 36,000.00 Num: 20 Win: 36,000.00 Jackpot: 0.00 Tip: 0.00
SAS 2022-10-29 12:45:28.765 >> SAS 1 Exception sent: 7E
GM  2022-10-29 12:45:28.894 >> Game played: Position: 0 Selected: 1 ID: 349347 Bets: 36,000.00 Win: 36,000.00 Tip: 0.00 Reel stops: 1-20
GM  2022-10-29 12:45:28.903 >> Command from game : 01
SAS 2022-10-29 12:45:28.987 >> SAS 1 Exception sent: 7F
SAS 2022-10-29 12:46:29.346 >> Game 349348: Bets: 35,000.00 Num: 26 Win: 36,000.00 Jackpot: 0.00 Tip: 0.00
GM  2022-10-29 12:46:29.545 >> Game played: Position: 0 Selected: 1 ID: 349348 Bets: 35,000.00 Win: 36,000.00 Tip: 0.00 Reel stops: 1-26
GM  2022-10-29 12:46:29.555 >> Command from game : 01
SAS 2022-10-29 12:46:29.587 >> SAS 1 Exception sent: 7E
SAS 2022-10-29 12:46:30.037 >> SAS 1 Exception sent: 7F
SAS 2022-10-29 12:48:41.599 >> Game 349349: Bets: 37,000.00 Num: 28 Win: 0.00 Jackpot: 0.00 Tip: 0.00
GM  2022-10-29 12:48:41.806 >> Game played: Position: 0 Selected: 1 ID: 349349 Bets: 37,000.00 Win: 0.00 Tip: 0.00 Reel stops: 1-28
GM  2022-10-29 12:48:41.807 >> Command from game : 01
SAS 2022-10-29 12:48:41.904 >> SAS 1 Exception sent: 7E
SAS 2022-10-29 12:48:42.127 >> SAS 1 Exception sent: 7F
BA  2022-10-29 12:49:03.114 >> Banknote COP 50,000.00
BA  2022-10-29 12:49:03.114 >> Banknote inserted: 50,000.00 (#6)
SAS 2022-10-29 12:49:04.120 >> Banknote accepted: 50,000.00
SAS 2022-10-29 12:49:04.468 >> SAS 1 Exception sent: 4F
SAS 2022-10-29 12:50:05.190 >> Game 349350: Bets: 50,000.00 Num: 34 Win: 0.00 Jackpot: 0.00 Tip: 0.00
SAS 2022-10-29 12:50:05.192 >> SAS 1 Exception sent: 7E
GM  2022-10-29 12:50:05.372 >> Game played: Position: 0 Selected: 1 ID: 349350 Bets: 50,000.00 Win: 0.00 Tip: 0.00 Reel stops: 1-34
GM  2022-10-29 12:50:05.382 >> Command from game : 01
SAS 2022-10-29 12:50:05.666 >> SAS 1 Exception sent: 7F
BA  2022-10-29 12:50:32.539 >> Banknote COP 50,000.00
BA  2022-10-29 12:50:32.539 >> Banknote inserted: 50,000.00 (#6)
SAS 2022-10-29 12:50:33.553 >> Banknote accepted: 50,000.00
SAS 2022-10-29 12:50:33.766 >> SAS 1 Exception sent: 4F
SAS 2022-10-29 12:51:28.393 >> Game 349351: Bets: 50,000.00 Num: 17 Win: 72,000.00 Jackpot: 0.00 Tip: 0.00
GM  2022-10-29 12:51:28.521 >> Game played: Position: 0 Selected: 1 ID: 349351 Bets: 50,000.00 Win: 72,000.00 Tip: 0.00 Reel stops: 1-17
SAS 2022-10-29 12:51:28.545 >> SAS 1 Exception sent: 7E
GM  2022-10-29 12:51:28.556 >> Command from game : 01
SAS 2022-10-29 12:51:28.768 >> SAS 1 Exception sent: 7F
SAS 2022-10-29 12:52:33.577 >> Game 349352: Bets: 44,000.00 Num: 9 Win: 36,000.00 Jackpot: 0.00 Tip: 0.00
SAS 2022-10-29 12:52:33.650 >> SAS 1 Exception sent: 7E
GM  2022-10-29 12:52:33.734 >> Game played: Position: 0 Selected: 1 ID: 349352 Bets: 44,000.00 Win: 36,000.00 Tip: 0.00 Reel stops: 1-9
GM  2022-10-29 12:52:33.735 >> Command from game : 01
SAS 2022-10-29 12:52:34.129 >> SAS 1 Exception sent: 7F
SAS 2022-10-29 12:53:39.677 >> Game 349353: Bets: 51,000.00 Num: 12 Win: 36,000.00 Jackpot: 0.00 Tip: 0.00
SAS 2022-10-29 12:53:39.718 >> SAS 1 Exception sent: 7E
GM  2022-10-29 12:53:39.909 >> Game played: Position: 0 Selected: 1 ID: 349353 Bets: 51,000.00 Win: 36,000.00 Tip: 0.00 Reel stops: 1-12
GM  2022-10-29 12:53:39.930 >> Command from game : 01
SAS 2022-10-29 12:53:40.180 >> SAS 1 Exception sent: 7F
SAS 2022-10-29 12:54:41.732 >> Game 349354: Bets: 49,000.00 Num: 15 Win: 36,000.00 Jackpot: 0.00 Tip: 0.00
GM  2022-10-29 12:54:41.865 >> Game played: Position: 0 Selected: 1 ID: 349354 Bets: 49,000.00 Win: 36,000.00 Tip: 0.00 Reel stops: 1-15
GM  2022-10-29 12:54:41.866 >> Command from game : 01
SAS 2022-10-29 12:54:42.127 >> SAS 1 Exception sent: 7E
SAS 2022-10-29 12:54:42.350 >> SAS 1 Exception sent: 7F
SAS 2022-10-29 12:55:49.331 >> Game 349355: Bets: 36,000.00 Num: 23 Win: 36,000.00 Jackpot: 0.00 Tip: 0.00
SAS 2022-10-29 12:55:49.369 >> SAS 1 Exception sent: 7E
GM  2022-10-29 12:55:49.470 >> Game played: Position: 0 Selected: 1 ID: 349355 Bets: 36,000.00 Win: 36,000.00 Tip: 0.00 Reel stops: 1-23
GM  2022-10-29 12:55:49.479 >> Command from game : 01
SAS 2022-10-29 12:55:49.592 >> SAS 1 Exception sent: 7F
SAS 2022-10-29 12:56:48.849 >> Game 349356: Bets: 35,000.00 Num: 19 Win: 36,000.00 Jackpot: 0.00 Tip: 0.00
GM  2022-10-29 12:56:49.058 >> Game played: Position: 0 Selected: 1 ID: 349356 Bets: 35,000.00 Win: 36,000.00 Tip: 0.00 Reel stops: 1-19
GM  2022-10-29 12:56:49.059 >> Command from game : 01
SAS 2022-10-29 12:56:49.099 >> SAS 1 Exception sent: 7E
SAS 2022-10-29 12:56:49.574 >> SAS 1 Exception sent: 7F
SAS 2022-10-29 12:57:53.667 >> Game 349357: Bets: 37,000.00 Num: 29 Win: 36,000.00 Jackpot: 0.00 Tip: 0.00
GM  2022-10-29 12:57:53.804 >> Game played: Position: 0 Selected: 1 ID: 349357 Bets: 37,000.00 Win: 36,000.00 Tip: 0.00 Reel stops: 1-29
GM  2022-10-29 12:57:53.804 >> Command from game : 01
SAS 2022-10-29 12:57:53.849 >> SAS 1 Exception sent: 7E
SAS 2022-10-29 12:57:54.072 >> SAS 1 Exception sent: 7F
SAS 2022-10-29 12:58:55.264 >> Game 349358: Bets: 36,000.00 Num: 36 Win: 72,000.00 Jackpot: 0.00 Tip: 0.00
GM  2022-10-29 12:58:55.440 >> Game played: Position: 0 Selected: 1 ID: 349358 Bets: 36,000.00 Win: 72,000.00 Tip: 0.00 Reel stops: 1-36
GM  2022-10-29 12:58:55.440 >> Command from game : 01
SAS 2022-10-29 12:58:55.696 >> SAS 1 Exception sent: 7E
SAS 2022-10-29 12:58:56.148 >> SAS 1 Exception sent: 7F
SAS 2022-10-29 12:59:54.718 >> Game 349359: Bets: 72,000.00 Num: 6 Win: 72,000.00 Jackpot: 0.00 Tip: 0.00
GM  2022-10-29 12:59:54.896 >> Game played: Position: 0 Selected: 1 ID: 349359 Bets: 72,000.00 Win: 72,000.00 Tip: 0.00 Reel stops: 1-6
GM  2022-10-29 12:59:54.896 >> Command from game : 01
SAS 2022-10-29 12:59:55.140 >> SAS 1 Exception sent: 7E
SAS 2022-10-29 12:59:55.363 >> SAS 1 Exception sent: 7F
