LOG 2022-10-05 16:00:00.771 >> Alfastreet Account Server V4.24.7.0 DLL: Alfastreet Alfa Account V4.24.7.0 - AL000 602 1
GM  2022-10-05 16:03:31.376 >> Event: 72
SAS 2022-10-05 16:03:31.376 >> Call attendant cancelled
SAS 2022-10-05 16:03:31.668 >> SAS 1 Exception sent: 72
