LOG 2022-08-26 11:00:00.238 >> Alfastreet Account Server V4.24.7.0 DLL: Alfastreet Alfa Account V4.24.7.0 - AL000 602 1
AAS 2022-08-26 11:43:20.164 >> Key  3 inserted
AAS 2022-08-26 11:43:20.713 >> Key  3 removed
AAS 2022-08-26 11:43:21.038 >> Key  3 inserted
AAS 2022-08-26 11:43:23.337 >> Key  3 removed
AAS 2022-08-26 11:43:23.445 >> Key  3 inserted
AAS 2022-08-26 11:43:39.716 >> Key  3 removed
