LOG 2022-10-22 22:00:00.146 >> Alfastreet Account Server V4.24.7.0 DLL: Alfastreet Alfa Account V4.24.7.0 - AL000 602 1
BA  2022-10-22 22:01:20.660 >> Banknote COP 10,000.00
BA  2022-10-22 22:01:20.660 >> Banknote inserted: 10,000.00 (#4)
SAS 2022-10-22 22:01:21.682 >> Banknote accepted: 10,000.00
SAS 2022-10-22 22:01:21.808 >> SAS 1 Exception sent: 4F
SAS 2022-10-22 22:01:44.585 >> Game 346803: Bets: 10,000.00 Num: 33 Win: 0.00 Jackpot: 0.00 Tip: 0.00
GM  2022-10-22 22:01:44.740 >> Game played: Position: 0 Selected: 1 ID: 346803 Bets: 10,000.00 Win: 0.00 Tip: 0.00 Reel stops: 1-33
GM  2022-10-22 22:01:44.740 >> Command from game : 01
SAS 2022-10-22 22:01:44.765 >> SAS 1 Exception sent: 7E
SAS 2022-10-22 22:01:45.245 >> SAS 1 Exception sent: 7F
BA  2022-10-22 22:01:51.686 >> Banknote COP 5,000.00
BA  2022-10-22 22:01:51.686 >> Banknote inserted: 5,000.00 (#3)
SAS 2022-10-22 22:01:52.700 >> Banknote accepted: 5,000.00
SAS 2022-10-22 22:01:52.733 >> SAS 1 Exception sent: 4F
SAS 2022-10-22 22:02:48.901 >> Game 346804: Bets: 5,000.00 Num: 32 Win: 0.00 Jackpot: 0.00 Tip: 0.00
GM  2022-10-22 22:02:49.055 >> Game played: Position: 0 Selected: 1 ID: 346804 Bets: 5,000.00 Win: 0.00 Tip: 0.00 Reel stops: 1-32
GM  2022-10-22 22:02:49.061 >> Command from game : 01
SAS 2022-10-22 22:02:49.067 >> SAS 1 Exception sent: 7E
SAS 2022-10-22 22:02:49.290 >> SAS 1 Exception sent: 7F
BA  2022-10-22 22:03:16.061 >> Banknote COP 50,000.00
BA  2022-10-22 22:03:16.061 >> Banknote inserted: 50,000.00 (#6)
SAS 2022-10-22 22:03:17.066 >> Banknote accepted: 50,000.00
SAS 2022-10-22 22:03:17.155 >> SAS 1 Exception sent: 4F
SAS 2022-10-22 22:03:50.100 >> Game 346805: Bets: 41,000.00 Num: 5 Win: 72,000.00 Jackpot: 0.00 Tip: 0.00
GM  2022-10-22 22:03:50.247 >> Game played: Position: 0 Selected: 1 ID: 346805 Bets: 41,000.00 Win: 72,000.00 Tip: 0.00 Reel stops: 1-5
GM  2022-10-22 22:03:50.255 >> Command from game : 01
SAS 2022-10-22 22:03:50.392 >> SAS 1 Exception sent: 7E
SAS 2022-10-22 22:03:50.615 >> SAS 1 Exception sent: 7F
SAS 2022-10-22 22:04:54.636 >> Game 346806: Bets: 41,000.00 Num: 1 Win: 0.00 Jackpot: 0.00 Tip: 0.00
GM  2022-10-22 22:04:54.795 >> Game played: Position: 0 Selected: 1 ID: 346806 Bets: 41,000.00 Win: 0.00 Tip: 0.00 Reel stops: 1-1
GM  2022-10-22 22:04:54.802 >> Command from game : 01
SAS 2022-10-22 22:04:54.914 >> SAS 1 Exception sent: 7E
SAS 2022-10-22 22:04:55.137 >> SAS 1 Exception sent: 7F
SAS 2022-10-22 22:05:58.855 >> Game 346807: Bets: 37,000.00 Num: 27 Win: 36,000.00 Jackpot: 0.00 Tip: 0.00
GM  2022-10-22 22:05:59.034 >> Game played: Position: 0 Selected: 1 ID: 346807 Bets: 37,000.00 Win: 36,000.00 Tip: 0.00 Reel stops: 1-27
GM  2022-10-22 22:05:59.040 >> Command from game : 01
SAS 2022-10-22 22:05:59.178 >> SAS 1 Exception sent: 7E
SAS 2022-10-22 22:05:59.635 >> SAS 1 Exception sent: 7F
SAS 2022-10-22 22:06:59.254 >> Game 346808: Bets: 39,000.00 Num: 13 Win: 36,000.00 Jackpot: 0.00 Tip: 0.00
SAS 2022-10-22 22:06:59.267 >> SAS 1 Exception sent: 7E
GM  2022-10-22 22:06:59.396 >> Game played: Position: 0 Selected: 1 ID: 346808 Bets: 39,000.00 Win: 36,000.00 Tip: 0.00 Reel stops: 1-13
GM  2022-10-22 22:06:59.397 >> Command from game : 01
SAS 2022-10-22 22:06:59.717 >> SAS 1 Exception sent: 7F
SAS 2022-10-22 22:08:05.753 >> Game 346809: Bets: 36,000.00 Num: 4 Win: 36,000.00 Jackpot: 0.00 Tip: 0.00
GM  2022-10-22 22:08:05.888 >> Game played: Position: 0 Selected: 1 ID: 346809 Bets: 36,000.00 Win: 36,000.00 Tip: 0.00 Reel stops: 1-4
GM  2022-10-22 22:08:05.889 >> Command from game : 01
SAS 2022-10-22 22:08:06.039 >> SAS 1 Exception sent: 7E
SAS 2022-10-22 22:08:06.262 >> SAS 1 Exception sent: 7F
SAS 2022-10-22 22:09:13.627 >> Game 346810: Bets: 34,000.00 Num: 25 Win: 36,000.00 Jackpot: 0.00 Tip: 0.00
SAS 2022-10-22 22:09:13.640 >> SAS 1 Exception sent: 7E
GM  2022-10-22 22:09:13.779 >> Game played: Position: 0 Selected: 1 ID: 346810 Bets: 34,000.00 Win: 36,000.00 Tip: 0.00 Reel stops: 1-25
GM  2022-10-22 22:09:13.790 >> Command from game : 01
SAS 2022-10-22 22:09:14.096 >> SAS 1 Exception sent: 7F
SAS 2022-10-22 22:10:20.592 >> Game 346811: Bets: 38,000.00 Num: 2 Win: 36,000.00 Jackpot: 0.00 Tip: 0.00
GM  2022-10-22 22:10:20.743 >> Game played: Position: 0 Selected: 1 ID: 346811 Bets: 38,000.00 Win: 36,000.00 Tip: 0.00 Reel stops: 1-2
GM  2022-10-22 22:10:20.744 >> Command from game : 01
SAS 2022-10-22 22:10:20.838 >> SAS 1 Exception sent: 7E
SAS 2022-10-22 22:10:21.061 >> SAS 1 Exception sent: 7F
SAS 2022-10-22 22:11:26.257 >> Game 346812: Bets: 34,000.00 Num: 7 Win: 36,000.00 Jackpot: 0.00 Tip: 0.00
GM  2022-10-22 22:11:26.428 >> Game played: Position: 0 Selected: 1 ID: 346812 Bets: 34,000.00 Win: 36,000.00 Tip: 0.00 Reel stops: 1-7
GM  2022-10-22 22:11:26.428 >> Command from game : 01
SAS 2022-10-22 22:11:26.470 >> SAS 1 Exception sent: 7E
SAS 2022-10-22 22:11:26.944 >> SAS 1 Exception sent: 7F
SAS 2022-10-22 22:12:24.388 >> Game 346813: Bets: 38,000.00 Num: 4 Win: 36,000.00 Jackpot: 0.00 Tip: 0.00
SAS 2022-10-22 22:12:24.492 >> SAS 1 Exception sent: 7E
GM  2022-10-22 22:12:24.547 >> Game played: Position: 0 Selected: 1 ID: 346813 Bets: 38,000.00 Win: 36,000.00 Tip: 0.00 Reel stops: 1-4
GM  2022-10-22 22:12:24.548 >> Command from game : 01
SAS 2022-10-22 22:12:24.942 >> SAS 1 Exception sent: 7F
SAS 2022-10-22 22:13:32.276 >> Game 346814: Bets: 36,000.00 Num: 13 Win: 54,000.00 Jackpot: 0.00 Tip: 0.00
GM  2022-10-22 22:13:32.443 >> Game played: Position: 0 Selected: 1 ID: 346814 Bets: 36,000.00 Win: 54,000.00 Tip: 0.00 Reel stops: 1-13
GM  2022-10-22 22:13:32.444 >> Command from game : 01
SAS 2022-10-22 22:13:32.648 >> SAS 1 Exception sent: 7E
SAS 2022-10-22 22:13:33.099 >> SAS 1 Exception sent: 7F
SAS 2022-10-22 22:14:30.610 >> Game 346815: Bets: 54,000.00 Num: 16 Win: 0.00 Jackpot: 0.00 Tip: 0.00
SAS 2022-10-22 22:14:30.742 >> SAS 1 Exception sent: 7E
GM  2022-10-22 22:14:30.805 >> Game played: Position: 0 Selected: 1 ID: 346815 Bets: 54,000.00 Win: 0.00 Tip: 0.00 Reel stops: 1-16
GM  2022-10-22 22:14:30.806 >> Command from game : 01
SAS 2022-10-22 22:14:30.965 >> SAS 1 Exception sent: 7F
BA  2022-10-22 22:15:02.419 >> Banknote COP 20,000.00
BA  2022-10-22 22:15:02.419 >> Banknote inserted: 20,000.00 (#5)
SAS 2022-10-22 22:15:03.625 >> Banknote accepted: 20,000.00
SAS 2022-10-22 22:15:03.939 >> SAS 1 Exception sent: 4F
SAS 2022-10-22 22:16:02.908 >> Game 346816: Bets: 20,000.00 Num: 10 Win: 0.00 Jackpot: 0.00 Tip: 0.00
SAS 2022-10-22 22:16:02.919 >> SAS 1 Exception sent: 7E
GM  2022-10-22 22:16:03.042 >> Game played: Position: 0 Selected: 1 ID: 346816 Bets: 20,000.00 Win: 0.00 Tip: 0.00 Reel stops: 1-10
GM  2022-10-22 22:16:03.043 >> Command from game : 01
SAS 2022-10-22 22:16:03.142 >> SAS 1 Exception sent: 7F
BA  2022-10-22 22:16:34.693 >> Banknote COP 50,000.00
BA  2022-10-22 22:16:34.693 >> Banknote inserted: 50,000.00 (#6)
SAS 2022-10-22 22:16:35.495 >> Banknote accepted: 50,000.00
SAS 2022-10-22 22:16:35.724 >> SAS 1 Exception sent: 4F
SAS 2022-10-22 22:17:31.425 >> Game 346817: Bets: 50,000.00 Num: 15 Win: 90,000.00 Jackpot: 0.00 Tip: 0.00
SAS 2022-10-22 22:17:31.427 >> SAS 1 Exception sent: 7E
GM  2022-10-22 22:17:31.556 >> Game played: Position: 0 Selected: 1 ID: 346817 Bets: 50,000.00 Win: 90,000.00 Tip: 0.00 Reel stops: 1-15
GM  2022-10-22 22:17:31.556 >> Command from game : 01
SAS 2022-10-22 22:17:31.902 >> SAS 1 Exception sent: 7F
SAS 2022-10-22 22:18:33.544 >> Game 346818: Bets: 9,000.00 Num: 30 Win: 0.00 Jackpot: 0.00 Tip: 0.00
GM  2022-10-22 22:18:33.662 >> Game played: Position: 0 Selected: 1 ID: 346818 Bets: 9,000.00 Win: 0.00 Tip: 0.00 Reel stops: 1-30
GM  2022-10-22 22:18:33.662 >> Command from game : 01
SAS 2022-10-22 22:18:33.992 >> SAS 1 Exception sent: 7E
SAS 2022-10-22 22:18:34.492 >> SAS 1 Exception sent: 7F
SAS 2022-10-22 22:19:42.679 >> Game 346819: Bets: 48,000.00 Num: 14 Win: 36,000.00 Jackpot: 0.00 Tip: 0.00
SAS 2022-10-22 22:19:42.834 >> SAS 1 Exception sent: 7E
GM  2022-10-22 22:19:42.884 >> Game played: Position: 0 Selected: 1 ID: 346819 Bets: 48,000.00 Win: 36,000.00 Tip: 0.00 Reel stops: 1-14
GM  2022-10-22 22:19:42.884 >> Command from game : 01
SAS 2022-10-22 22:19:43.309 >> SAS 1 Exception sent: 7F
SAS 2022-10-22 22:20:48.887 >> Game 346820: Bets: 69,000.00 Num: 29 Win: 72,000.00 Jackpot: 0.00 Tip: 0.00
GM  2022-10-22 22:20:49.025 >> Game played: Position: 0 Selected: 1 ID: 346820 Bets: 69,000.00 Win: 72,000.00 Tip: 0.00 Reel stops: 1-29
GM  2022-10-22 22:20:49.025 >> Command from game : 01
SAS 2022-10-22 22:20:49.306 >> SAS 1 Exception sent: 7E
SAS 2022-10-22 22:20:49.529 >> SAS 1 Exception sent: 7F
SAS 2022-10-22 22:21:47.145 >> Game 346821: Bets: 62,000.00 Num: 4 Win: 0.00 Jackpot: 0.00 Tip: 0.00
SAS 2022-10-22 22:21:47.271 >> SAS 1 Exception sent: 7E
GM  2022-10-22 22:21:47.286 >> Game played: Position: 0 Selected: 1 ID: 346821 Bets: 62,000.00 Win: 0.00 Tip: 0.00 Reel stops: 1-4
GM  2022-10-22 22:21:47.286 >> Command from game : 01
SAS 2022-10-22 22:21:47.505 >> SAS 1 Exception sent: 7F
SAS 2022-10-22 22:22:49.709 >> Game 346822: Bets: 9,400.00 Num: 28 Win: 0.00 Jackpot: 0.00 Tip: 0.00
GM  2022-10-22 22:22:49.933 >> Game played: Position: 0 Selected: 1 ID: 346822 Bets: 9,400.00 Win: 0.00 Tip: 0.00 Reel stops: 1-28
GM  2022-10-22 22:22:49.934 >> Command from game : 01
SAS 2022-10-22 22:22:50.102 >> SAS 1 Exception sent: 7E
SAS 2022-10-22 22:22:50.325 >> SAS 1 Exception sent: 7F
BA  2022-10-22 22:23:36.915 >> Banknote COP 2,000.00
BA  2022-10-22 22:23:36.915 >> Banknote inserted: 2,000.00 (#2)
SAS 2022-10-22 22:23:37.931 >> Banknote accepted: 2,000.00
SAS 2022-10-22 22:23:37.992 >> SAS 1 Exception sent: 4F
BA  2022-10-22 22:23:39.551 >> Banknote COP 2,000.00
BA  2022-10-22 22:23:39.551 >> Banknote inserted: 2,000.00 (#2)
SAS 2022-10-22 22:23:40.372 >> Banknote accepted: 2,000.00
SAS 2022-10-22 22:23:40.466 >> SAS 1 Exception sent: 4F
SAS 2022-10-22 22:24:56.171 >> Game 346824: Bets: 4,600.00 Num: 32 Win: 0.00 Jackpot: 0.00 Tip: 0.00
SAS 2022-10-22 22:24:56.302 >> SAS 1 Exception sent: 7E
GM  2022-10-22 22:24:56.368 >> Game played: Position: 0 Selected: 1 ID: 346824 Bets: 4,600.00 Win: 0.00 Tip: 0.00 Reel stops: 1-32
GM  2022-10-22 22:24:56.379 >> Command from game : 01
SAS 2022-10-22 22:24:56.525 >> SAS 1 Exception sent: 7F
GM  2022-10-22 22:35:27.383 >> Player denomination 0: 200.00
GM  2022-10-22 22:35:27.383 >> Player denomination 1: 100.00
GM  2022-10-22 22:35:27.383 >> Player denomination 2: 200.00
GM  2022-10-22 22:35:27.383 >> Player denomination 3: 500.00
GM  2022-10-22 22:35:27.383 >> Player denomination 4: 1,000.00
GM  2022-10-22 22:35:27.383 >> Player denomination 5: 0.00
GM  2022-10-22 22:35:27.383 >> Player denomination 6: 0.00
GM  2022-10-22 22:35:27.383 >> Player denomination 7: 0.00
GM  2022-10-22 22:35:27.383 >> Player denomination 8: 0.00
GM  2022-10-22 22:35:27.383 >> Player denomination 9: 0.00
GM  2022-10-22 22:35:27.383 >> Player denomination 10: 0.00
