LOG 2022-10-25 20:00:00.352 >> Alfastreet Account Server V4.24.7.0 DLL: Alfastreet Alfa Account V4.24.7.0 - AL000 602 1
BA  2022-10-25 20:08:55.546 >> Banknote COP 5,000.00
BA  2022-10-25 20:08:55.546 >> Banknote inserted: 5,000.00 (#3)
SAS 2022-10-25 20:08:56.361 >> Banknote accepted: 5,000.00
SAS 2022-10-25 20:08:56.369 >> SAS 1 Exception sent: 4F
SAS 2022-10-25 20:09:55.727 >> Game 347791: Bets: 3,400.00 Num: 36 Win: 3,800.00 Jackpot: 0.00 Tip: 0.00
SAS 2022-10-25 20:09:55.819 >> SAS 1 Exception sent: 7E
GM  2022-10-25 20:09:55.916 >> Game played: Position: 0 Selected: 1 ID: 347791 Bets: 3,400.00 Win: 3,800.00 Tip: 0.00 Reel stops: 1-36
GM  2022-10-25 20:09:55.916 >> Command from game : 01
SAS 2022-10-25 20:09:56.269 >> SAS 1 Exception sent: 7F
SAS 2022-10-25 20:10:59.694 >> Game 347792: Bets: 4,400.00 Num: 36 Win: 1,800.00 Jackpot: 0.00 Tip: 0.00
GM  2022-10-25 20:10:59.891 >> Game played: Position: 0 Selected: 1 ID: 347792 Bets: 4,400.00 Win: 1,800.00 Tip: 0.00 Reel stops: 1-36
GM  2022-10-25 20:10:59.910 >> Command from game : 01
SAS 2022-10-25 20:11:00.126 >> SAS 1 Exception sent: 7E
SAS 2022-10-25 20:11:00.349 >> SAS 1 Exception sent: 7F
SAS 2022-10-25 20:12:01.212 >> Game 347793: Bets: 2,800.00 Num: 28 Win: 5,600.00 Jackpot: 0.00 Tip: 0.00
SAS 2022-10-25 20:12:01.245 >> SAS 1 Exception sent: 7E
GM  2022-10-25 20:12:01.338 >> Game played: Position: 0 Selected: 1 ID: 347793 Bets: 2,800.00 Win: 5,600.00 Tip: 0.00 Reel stops: 1-28
GM  2022-10-25 20:12:01.369 >> Command from game : 01
SAS 2022-10-25 20:12:01.468 >> SAS 1 Exception sent: 7F
SAS 2022-10-25 20:12:59.383 >> Game 347794: Bets: 4,800.00 Num: 2 Win: 5,400.00 Jackpot: 0.00 Tip: 0.00
SAS 2022-10-25 20:12:59.415 >> SAS 1 Exception sent: 7E
GM  2022-10-25 20:12:59.589 >> Game played: Position: 0 Selected: 1 ID: 347794 Bets: 4,800.00 Win: 5,400.00 Tip: 0.00 Reel stops: 1-2
GM  2022-10-25 20:12:59.607 >> Command from game : 01
SAS 2022-10-25 20:12:59.869 >> SAS 1 Exception sent: 7F
SAS 2022-10-25 20:14:00.646 >> Game 347795: Bets: 5,400.00 Num: 27 Win: 5,600.00 Jackpot: 0.00 Tip: 0.00
SAS 2022-10-25 20:14:00.656 >> SAS 1 Exception sent: 7E
GM  2022-10-25 20:14:00.768 >> Game played: Position: 0 Selected: 1 ID: 347795 Bets: 5,400.00 Win: 5,600.00 Tip: 0.00 Reel stops: 1-27
GM  2022-10-25 20:14:00.768 >> Command from game : 01
SAS 2022-10-25 20:14:00.879 >> SAS 1 Exception sent: 7F
SAS 2022-10-25 20:14:57.627 >> Game 347796: Bets: 5,400.00 Num: 16 Win: 1,800.00 Jackpot: 0.00 Tip: 0.00
GM  2022-10-25 20:14:57.795 >> Game played: Position: 0 Selected: 1 ID: 347796 Bets: 5,400.00 Win: 1,800.00 Tip: 0.00 Reel stops: 1-16
GM  2022-10-25 20:14:57.799 >> Command from game : 01
SAS 2022-10-25 20:14:57.809 >> SAS 1 Exception sent: 7E
SAS 2022-10-25 20:14:58.032 >> SAS 1 Exception sent: 7F
SAS 2022-10-25 20:15:58.328 >> Game 347797: Bets: 2,800.00 Num: 26 Win: 5,600.00 Jackpot: 0.00 Tip: 0.00
SAS 2022-10-25 20:15:58.432 >> SAS 1 Exception sent: 7E
GM  2022-10-25 20:15:58.516 >> Game played: Position: 0 Selected: 1 ID: 347797 Bets: 2,800.00 Win: 5,600.00 Tip: 0.00 Reel stops: 1-26
GM  2022-10-25 20:15:58.539 >> Command from game : 01
SAS 2022-10-25 20:15:58.654 >> SAS 1 Exception sent: 7F
SAS 2022-10-25 20:17:01.476 >> Game 347798: Bets: 5,600.00 Num: 25 Win: 3,600.00 Jackpot: 0.00 Tip: 0.00
SAS 2022-10-25 20:17:01.576 >> SAS 1 Exception sent: 7E
GM  2022-10-25 20:17:01.662 >> Game played: Position: 0 Selected: 1 ID: 347798 Bets: 5,600.00 Win: 3,600.00 Tip: 0.00 Reel stops: 1-25
GM  2022-10-25 20:17:01.684 >> Command from game : 01
SAS 2022-10-25 20:17:01.799 >> SAS 1 Exception sent: 7F
SAS 2022-10-25 20:18:01.319 >> Game 347799: Bets: 3,600.00 Num: 31 Win: 5,600.00 Jackpot: 0.00 Tip: 0.00
GM  2022-10-25 20:18:01.538 >> Game played: Position: 0 Selected: 1 ID: 347799 Bets: 3,600.00 Win: 5,600.00 Tip: 0.00 Reel stops: 1-31
GM  2022-10-25 20:18:01.546 >> Command from game : 01
SAS 2022-10-25 20:18:01.660 >> SAS 1 Exception sent: 7E
SAS 2022-10-25 20:18:02.127 >> SAS 1 Exception sent: 7F
SAS 2022-10-25 20:19:01.917 >> Game 347800: Bets: 5,600.00 Num: 16 Win: 5,600.00 Jackpot: 0.00 Tip: 0.00
SAS 2022-10-25 20:19:01.942 >> SAS 1 Exception sent: 7E
GM  2022-10-25 20:19:02.112 >> Game played: Position: 0 Selected: 1 ID: 347800 Bets: 5,600.00 Win: 5,600.00 Tip: 0.00 Reel stops: 1-16
GM  2022-10-25 20:19:02.120 >> Command from game : 01
SAS 2022-10-25 20:19:02.393 >> SAS 1 Exception sent: 7F
SAS 2022-10-25 20:20:04.552 >> Game 347801: Bets: 5,400.00 Num: 22 Win: 3,600.00 Jackpot: 0.00 Tip: 0.00
SAS 2022-10-25 20:20:04.584 >> SAS 1 Exception sent: 7E
GM  2022-10-25 20:20:04.684 >> Game played: Position: 0 Selected: 1 ID: 347801 Bets: 5,400.00 Win: 3,600.00 Tip: 0.00 Reel stops: 1-22
GM  2022-10-25 20:20:04.697 >> Command from game : 01
SAS 2022-10-25 20:20:05.059 >> SAS 1 Exception sent: 7F
SAS 2022-10-25 20:21:10.433 >> Game 347802: Bets: 3,800.00 Num: 23 Win: 5,400.00 Jackpot: 0.00 Tip: 0.00
GM  2022-10-25 20:21:10.587 >> Game played: Position: 0 Selected: 1 ID: 347802 Bets: 3,800.00 Win: 5,400.00 Tip: 0.00 Reel stops: 1-23
GM  2022-10-25 20:21:10.595 >> Command from game : 01
SAS 2022-10-25 20:21:10.646 >> SAS 1 Exception sent: 7E
SAS 2022-10-25 20:21:11.097 >> SAS 1 Exception sent: 7F
SAS 2022-10-25 20:22:15.019 >> Game 347803: Bets: 5,400.00 Num: 35 Win: 5,600.00 Jackpot: 0.00 Tip: 0.00
GM  2022-10-25 20:22:15.257 >> Game played: Position: 0 Selected: 1 ID: 347803 Bets: 5,400.00 Win: 5,600.00 Tip: 0.00 Reel stops: 1-35
GM  2022-10-25 20:22:15.265 >> Command from game : 01
SAS 2022-10-25 20:22:15.280 >> SAS 1 Exception sent: 7E
SAS 2022-10-25 20:22:15.736 >> SAS 1 Exception sent: 7F
SAS 2022-10-25 20:23:20.136 >> Game 347804: Bets: 5,400.00 Num: 13 Win: 3,800.00 Jackpot: 0.00 Tip: 0.00
GM  2022-10-25 20:23:20.347 >> Game played: Position: 0 Selected: 1 ID: 347804 Bets: 5,400.00 Win: 3,800.00 Tip: 0.00 Reel stops: 1-13
GM  2022-10-25 20:23:20.347 >> Command from game : 01
SAS 2022-10-25 20:23:20.521 >> SAS 1 Exception sent: 7E
SAS 2022-10-25 20:23:20.744 >> SAS 1 Exception sent: 7F
SAS 2022-10-25 20:24:17.803 >> Game 347805: Bets: 4,000.00 Num: 21 Win: 5,600.00 Jackpot: 0.00 Tip: 0.00
SAS 2022-10-25 20:24:17.807 >> SAS 1 Exception sent: 7E
GM  2022-10-25 20:24:17.962 >> Game played: Position: 0 Selected: 1 ID: 347805 Bets: 4,000.00 Win: 5,600.00 Tip: 0.00 Reel stops: 1-21
GM  2022-10-25 20:24:17.985 >> Command from game : 01
SAS 2022-10-25 20:24:18.031 >> SAS 1 Exception sent: 7F
SAS 2022-10-25 20:25:22.504 >> Game 347806: Bets: 5,200.00 Num: 29 Win: 7,200.00 Jackpot: 0.00 Tip: 0.00
SAS 2022-10-25 20:25:22.556 >> SAS 1 Exception sent: 7E
GM  2022-10-25 20:25:22.669 >> Game played: Position: 0 Selected: 1 ID: 347806 Bets: 5,200.00 Win: 7,200.00 Tip: 0.00 Reel stops: 1-29
GM  2022-10-25 20:25:22.670 >> Command from game : 01
SAS 2022-10-25 20:25:22.779 >> SAS 1 Exception sent: 7F
SAS 2022-10-25 20:26:23.574 >> Game 347807: Bets: 5,400.00 Num: 36 Win: 3,800.00 Jackpot: 0.00 Tip: 0.00
SAS 2022-10-25 20:26:23.648 >> SAS 1 Exception sent: 7E
GM  2022-10-25 20:26:23.740 >> Game played: Position: 0 Selected: 1 ID: 347807 Bets: 5,400.00 Win: 3,800.00 Tip: 0.00 Reel stops: 1-36
GM  2022-10-25 20:26:23.747 >> Command from game : 01
SAS 2022-10-25 20:26:23.890 >> SAS 1 Exception sent: 7F
SAS 2022-10-25 20:27:23.121 >> Game 347808: Bets: 5,600.00 Num: 7 Win: 5,400.00 Jackpot: 0.00 Tip: 0.00
GM  2022-10-25 20:27:23.306 >> Game played: Position: 0 Selected: 1 ID: 347808 Bets: 5,600.00 Win: 5,400.00 Tip: 0.00 Reel stops: 1-7
GM  2022-10-25 20:27:23.314 >> Command from game : 01
SAS 2022-10-25 20:27:23.348 >> SAS 1 Exception sent: 7E
SAS 2022-10-25 20:27:23.571 >> SAS 1 Exception sent: 7F
SAS 2022-10-25 20:28:24.573 >> Game 347809: Bets: 5,200.00 Num: 37 Win: 0.00 Jackpot: 0.00 Tip: 0.00
SAS 2022-10-25 20:28:24.618 >> SAS 1 Exception sent: 7E
GM  2022-10-25 20:28:24.754 >> Game played: Position: 0 Selected: 1 ID: 347809 Bets: 5,200.00 Win: 0.00 Tip: 0.00 Reel stops: 1-37
GM  2022-10-25 20:28:24.761 >> Command from game : 01
SAS 2022-10-25 20:28:24.843 >> SAS 1 Exception sent: 7F
