LOG 2022-10-15 19:00:00.626 >> Alfastreet Account Server V4.24.7.0 DLL: Alfastreet Alfa Account V4.24.7.0 - AL000 602 1
BA  2022-10-15 19:13:49.880 >> Banknote COP 2,000.00
BA  2022-10-15 19:13:49.880 >> Banknote inserted: 2,000.00 (#2)
SAS 2022-10-15 19:13:50.692 >> Banknote accepted: 2,000.00
SAS 2022-10-15 19:13:50.873 >> SAS 1 Exception sent: 4F
BA  2022-10-15 19:13:56.576 >> Banknote or Ticket rejected
SAS 2022-10-15 19:13:56.814 >> SAS 1 Exception sent: 2B
BA  2022-10-15 19:14:00.632 >> Banknote COP 2,000.00
BA  2022-10-15 19:14:00.632 >> Banknote inserted: 2,000.00 (#2)
SAS 2022-10-15 19:14:01.643 >> Banknote accepted: 2,000.00
SAS 2022-10-15 19:14:01.806 >> SAS 1 Exception sent: 4F
BA  2022-10-15 19:14:04.688 >> Banknote COP 2,000.00
BA  2022-10-15 19:14:04.688 >> Banknote inserted: 2,000.00 (#2)
SAS 2022-10-15 19:14:05.698 >> Banknote accepted: 2,000.00
SAS 2022-10-15 19:14:05.906 >> SAS 1 Exception sent: 4F
SAS 2022-10-15 19:14:56.788 >> Game 343650: Bets: 6,800.00 Num: 18 Win: 0.00 Jackpot: 0.00 Tip: 0.00
SAS 2022-10-15 19:14:56.951 >> SAS 1 Exception sent: 7E
GM  2022-10-15 19:14:56.985 >> Game played: Position: 0 Selected: 1 ID: 343650 Bets: 6,800.00 Win: 0.00 Tip: 0.00 Reel stops: 1-18
GM  2022-10-15 19:14:57.008 >> Command from game : 01
SAS 2022-10-15 19:14:57.401 >> SAS 1 Exception sent: 7F
BA  2022-10-15 19:15:22.977 >> Ticket inserted: 01-xxxx-xxxx-xxxx-1302
SAS 2022-10-15 19:15:23.146 >> SAS 1 Exception sent: 67
SAS 2022-10-15 19:15:25.805 >> Ticket accepted: 01-6310-8475-0667-1302 Amount: 50,000.00
SAS 2022-10-15 19:15:25.875 >> SAS 1 Exception sent: 68
SAS 2022-10-15 19:15:59.416 >> Game 343651: Bets: 8,400.00 Num: 0 Win: 72,000.00 Jackpot: 0.00 Tip: 0.00
GM  2022-10-15 19:15:59.574 >> Game played: Position: 0 Selected: 1 ID: 343651 Bets: 8,400.00 Win: 72,000.00 Tip: 0.00 Reel stops: 1-0
GM  2022-10-15 19:15:59.574 >> Command from game : 01
SAS 2022-10-15 19:15:59.770 >> SAS 1 Exception sent: 7E
SAS 2022-10-15 19:15:59.993 >> SAS 1 Exception sent: 7F
SAS 2022-10-15 19:17:02.470 >> Game 343652: Bets: 73,400.00 Num: 34 Win: 72,000.00 Jackpot: 0.00 Tip: 0.00
SAS 2022-10-15 19:17:02.472 >> SAS 1 Exception sent: 7E
GM  2022-10-15 19:17:02.682 >> Game played: Position: 0 Selected: 1 ID: 343652 Bets: 73,400.00 Win: 72,000.00 Tip: 0.00 Reel stops: 1-34
GM  2022-10-15 19:17:02.682 >> Command from game : 01
SAS 2022-10-15 19:17:02.695 >> SAS 1 Exception sent: 7F
GM  2022-10-15 19:17:08.490 >> Payout request: 112,200.00 / 0.00 / 0.00
SAS 2022-10-15 19:17:08.490 >> Payout initiated by player: 112,200.00 / 0.00 / 0.00
SAS 2022-10-15 19:17:08.490 >> Handpay init Amount: 112,200.00/0.00/0.00
SAS 2022-10-15 19:17:08.515 >> Initiate ticket (0) Amount: 112,200.00
SAS 2022-10-15 19:17:08.515 >> Send ticket data to printer (0): 00-xxxx-xxxx-xxxx-2830 Amount: 112,200.00
PRN 2022-10-15 19:17:08.515 >> Ticket prepared: 00-xxxx-xxxx-xxxx-2830 Amount: 112,200.00
SAS 2022-10-15 19:17:08.549 >> Handpay redirected to Ticket Printer.
SAS 2022-10-15 19:17:08.867 >> SAS 1 Exception sent: 66
PRN 2022-10-15 19:17:09.424 >> Ticket print commmand sent
PRN 2022-10-15 19:17:09.533 >> Ticket printing
SAS 2022-10-15 19:17:09.643 >> Ticket #629 printed: 00-xxxx-xxxx-xxxx-2830 Amount: 112,200.00
SAS 2022-10-15 19:17:09.793 >> SAS 1 Exception sent: 3D
BA  2022-10-15 19:17:55.070 >> Ticket inserted: 01-xxxx-xxxx-xxxx-6174
SAS 2022-10-15 19:17:55.460 >> SAS 1 Exception sent: 67
SAS 2022-10-15 19:17:57.307 >> Ticket accepted: 01-7131-4936-7135-6174 Amount: 50,000.00
SAS 2022-10-15 19:17:57.518 >> SAS 1 Exception sent: 68
SAS 2022-10-15 19:19:06.541 >> Game 343654: Bets: 25,600.00 Num: 11 Win: 0.00 Jackpot: 0.00 Tip: 0.00
SAS 2022-10-15 19:19:06.630 >> SAS 1 Exception sent: 7E
GM  2022-10-15 19:19:06.763 >> Game played: Position: 0 Selected: 1 ID: 343654 Bets: 25,600.00 Win: 0.00 Tip: 0.00 Reel stops: 1-11
GM  2022-10-15 19:19:06.775 >> Command from game : 01
SAS 2022-10-15 19:19:06.853 >> SAS 1 Exception sent: 7F
SAS 2022-10-15 19:20:13.560 >> Game 343655: Bets: 19,200.00 Num: 28 Win: 43,200.00 Jackpot: 0.00 Tip: 0.00
SAS 2022-10-15 19:20:13.727 >> SAS 1 Exception sent: 7E
GM  2022-10-15 19:20:13.769 >> Game played: Position: 0 Selected: 1 ID: 343655 Bets: 19,200.00 Win: 43,200.00 Tip: 0.00 Reel stops: 1-28
GM  2022-10-15 19:20:13.769 >> Command from game : 01
SAS 2022-10-15 19:20:13.950 >> SAS 1 Exception sent: 7F
SAS 2022-10-15 19:21:17.543 >> Game 343656: Bets: 31,400.00 Num: 7 Win: 28,800.00 Jackpot: 0.00 Tip: 0.00
SAS 2022-10-15 19:21:17.568 >> SAS 1 Exception sent: 7E
GM  2022-10-15 19:21:17.729 >> Game played: Position: 0 Selected: 1 ID: 343656 Bets: 31,400.00 Win: 28,800.00 Tip: 0.00 Reel stops: 1-7
GM  2022-10-15 19:21:17.741 >> Command from game : 01
SAS 2022-10-15 19:21:18.021 >> SAS 1 Exception sent: 7F
SAS 2022-10-15 19:22:18.755 >> Game 343657: Bets: 6,200.00 Num: 19 Win: 0.00 Jackpot: 0.00 Tip: 0.00
GM  2022-10-15 19:22:18.967 >> Game played: Position: 0 Selected: 1 ID: 343657 Bets: 6,200.00 Win: 0.00 Tip: 0.00 Reel stops: 1-19
GM  2022-10-15 19:22:18.979 >> Command from game : 01
SAS 2022-10-15 19:22:19.091 >> SAS 1 Exception sent: 7E
SAS 2022-10-15 19:22:19.542 >> SAS 1 Exception sent: 7F
SAS 2022-10-15 19:23:23.322 >> Game 343658: Bets: 27,000.00 Num: 30 Win: 0.00 Jackpot: 0.00 Tip: 0.00
GM  2022-10-15 19:23:23.537 >> Game played: Position: 0 Selected: 1 ID: 343658 Bets: 27,000.00 Win: 0.00 Tip: 0.00 Reel stops: 1-30
GM  2022-10-15 19:23:23.548 >> Command from game : 01
SAS 2022-10-15 19:23:23.579 >> SAS 1 Exception sent: 7E
SAS 2022-10-15 19:23:23.801 >> SAS 1 Exception sent: 7F
SAS 2022-10-15 19:24:22.357 >> Game 343659: Bets: 12,600.00 Num: 33 Win: 28,800.00 Jackpot: 0.00 Tip: 0.00
SAS 2022-10-15 19:24:22.435 >> SAS 1 Exception sent: 7E
GM  2022-10-15 19:24:22.572 >> Game played: Position: 0 Selected: 1 ID: 343659 Bets: 12,600.00 Win: 28,800.00 Tip: 0.00 Reel stops: 1-33
GM  2022-10-15 19:24:22.573 >> Command from game : 01
SAS 2022-10-15 19:24:22.885 >> SAS 1 Exception sent: 7F
SAS 2022-10-15 19:26:39.926 >> Game 343661: Bets: 23,800.00 Num: 16 Win: 28,800.00 Jackpot: 0.00 Tip: 0.00
GM  2022-10-15 19:26:40.117 >> Game played: Position: 0 Selected: 1 ID: 343661 Bets: 23,800.00 Win: 28,800.00 Tip: 0.00 Reel stops: 1-16
GM  2022-10-15 19:26:40.136 >> Command from game : 01
SAS 2022-10-15 19:26:40.295 >> SAS 1 Exception sent: 7E
SAS 2022-10-15 19:26:40.758 >> SAS 1 Exception sent: 7F
SAS 2022-10-15 19:28:41.587 >> Game 343663: Bets: 14,400.00 Num: 10 Win: 0.00 Jackpot: 0.00 Tip: 0.00
GM  2022-10-15 19:28:41.785 >> Game played: Position: 0 Selected: 1 ID: 343663 Bets: 14,400.00 Win: 0.00 Tip: 0.00 Reel stops: 1-10
GM  2022-10-15 19:28:41.786 >> Command from game : 01
SAS 2022-10-15 19:28:41.944 >> SAS 1 Exception sent: 7E
SAS 2022-10-15 19:28:42.394 >> SAS 1 Exception sent: 7F
SAS 2022-10-15 19:29:44.343 >> Game 343664: Bets: 14,200.00 Num: 10 Win: 36,000.00 Jackpot: 0.00 Tip: 0.00
GM  2022-10-15 19:29:44.559 >> Game played: Position: 0 Selected: 1 ID: 343664 Bets: 14,200.00 Win: 36,000.00 Tip: 0.00 Reel stops: 1-10
GM  2022-10-15 19:29:44.559 >> Command from game : 01
SAS 2022-10-15 19:29:44.629 >> SAS 1 Exception sent: 7E
SAS 2022-10-15 19:29:45.110 >> SAS 1 Exception sent: 7F
SAS 2022-10-15 19:30:48.395 >> Game 343665: Bets: 19,400.00 Num: 29 Win: 0.00 Jackpot: 0.00 Tip: 0.00
GM  2022-10-15 19:30:48.599 >> Game played: Position: 0 Selected: 1 ID: 343665 Bets: 19,400.00 Win: 0.00 Tip: 0.00 Reel stops: 1-29
GM  2022-10-15 19:30:48.608 >> Command from game : 01
SAS 2022-10-15 19:30:48.726 >> SAS 1 Exception sent: 7E
SAS 2022-10-15 19:30:48.948 >> SAS 1 Exception sent: 7F
SAS 2022-10-15 19:31:54.797 >> Game 343666: Bets: 17,600.00 Num: 20 Win: 25,200.00 Jackpot: 0.00 Tip: 0.00
GM  2022-10-15 19:31:54.960 >> Game played: Position: 0 Selected: 1 ID: 343666 Bets: 17,600.00 Win: 25,200.00 Tip: 0.00 Reel stops: 1-20
GM  2022-10-15 19:31:54.982 >> Command from game : 01
SAS 2022-10-15 19:31:55.190 >> SAS 1 Exception sent: 7E
SAS 2022-10-15 19:31:55.641 >> SAS 1 Exception sent: 7F
SAS 2022-10-15 19:32:57.645 >> Game 343667: Bets: 20,000.00 Num: 4 Win: 0.00 Jackpot: 0.00 Tip: 0.00
SAS 2022-10-15 19:32:57.722 >> SAS 1 Exception sent: 7E
GM  2022-10-15 19:32:57.803 >> Game played: Position: 0 Selected: 1 ID: 343667 Bets: 20,000.00 Win: 0.00 Tip: 0.00 Reel stops: 1-4
GM  2022-10-15 19:32:57.825 >> Command from game : 01
SAS 2022-10-15 19:32:58.173 >> SAS 1 Exception sent: 7F
SAS 2022-10-15 19:34:00.568 >> Game 343668: Bets: 2,800.00 Num: 15 Win: 0.00 Jackpot: 0.00 Tip: 0.00
SAS 2022-10-15 19:34:00.607 >> SAS 1 Exception sent: 7E
GM  2022-10-15 19:34:00.745 >> Game played: Position: 0 Selected: 1 ID: 343668 Bets: 2,800.00 Win: 0.00 Tip: 0.00 Reel stops: 1-15
GM  2022-10-15 19:34:00.745 >> Command from game : 01
SAS 2022-10-15 19:34:00.830 >> SAS 1 Exception sent: 7F
SAS 2022-10-15 19:35:03.365 >> Game 343669: Bets: 6,400.00 Num: 31 Win: 0.00 Jackpot: 0.00 Tip: 0.00
GM  2022-10-15 19:35:03.599 >> Game played: Position: 0 Selected: 1 ID: 343669 Bets: 6,400.00 Win: 0.00 Tip: 0.00 Reel stops: 1-31
GM  2022-10-15 19:35:03.600 >> Command from game : 01
SAS 2022-10-15 19:35:03.754 >> SAS 1 Exception sent: 7E
SAS 2022-10-15 19:35:03.977 >> SAS 1 Exception sent: 7F
BA  2022-10-15 19:35:18.695 >> Banknote COP 20,000.00
BA  2022-10-15 19:35:18.695 >> Banknote inserted: 20,000.00 (#5)
SAS 2022-10-15 19:35:19.696 >> Banknote accepted: 20,000.00
SAS 2022-10-15 19:35:19.928 >> SAS 1 Exception sent: 4F
SAS 2022-10-15 19:37:06.655 >> Game 343671: Bets: 20,200.00 Num: 35 Win: 0.00 Jackpot: 0.00 Tip: 0.00
SAS 2022-10-15 19:37:06.766 >> SAS 1 Exception sent: 7E
GM  2022-10-15 19:37:06.853 >> Game played: Position: 0 Selected: 1 ID: 343671 Bets: 20,200.00 Win: 0.00 Tip: 0.00 Reel stops: 1-35
GM  2022-10-15 19:37:06.861 >> Command from game : 01
SAS 2022-10-15 19:37:07.216 >> SAS 1 Exception sent: 7F
BA  2022-10-15 19:37:18.538 >> Banknote COP 20,000.00
BA  2022-10-15 19:37:18.538 >> Banknote inserted: 20,000.00 (#5)
SAS 2022-10-15 19:37:19.360 >> Banknote accepted: 20,000.00
SAS 2022-10-15 19:37:19.511 >> SAS 1 Exception sent: 4F
SAS 2022-10-15 19:38:07.268 >> Game 343672: Bets: 18,400.00 Num: 2 Win: 0.00 Jackpot: 0.00 Tip: 0.00
SAS 2022-10-15 19:38:07.347 >> SAS 1 Exception sent: 7E
GM  2022-10-15 19:38:07.557 >> Game played: Position: 0 Selected: 1 ID: 343672 Bets: 18,400.00 Win: 0.00 Tip: 0.00 Reel stops: 1-2
GM  2022-10-15 19:38:07.568 >> Command from game : 01
SAS 2022-10-15 19:38:07.571 >> SAS 1 Exception sent: 7F
BA  2022-10-15 19:38:37.025 >> Banknote COP 20,000.00
BA  2022-10-15 19:38:37.025 >> Banknote inserted: 20,000.00 (#5)
SAS 2022-10-15 19:38:38.036 >> Banknote accepted: 20,000.00
SAS 2022-10-15 19:38:38.071 >> SAS 1 Exception sent: 4F
SAS 2022-10-15 19:39:07.991 >> Game 343673: Bets: 16,600.00 Num: 29 Win: 0.00 Jackpot: 0.00 Tip: 0.00
SAS 2022-10-15 19:39:08.049 >> SAS 1 Exception sent: 7E
GM  2022-10-15 19:39:08.141 >> Game played: Position: 0 Selected: 1 ID: 343673 Bets: 16,600.00 Win: 0.00 Tip: 0.00 Reel stops: 1-29
GM  2022-10-15 19:39:08.152 >> Command from game : 01
SAS 2022-10-15 19:39:08.499 >> SAS 1 Exception sent: 7F
BA  2022-10-15 19:39:46.583 >> Banknote COP 20,000.00
BA  2022-10-15 19:39:46.583 >> Banknote inserted: 20,000.00 (#5)
SAS 2022-10-15 19:39:47.597 >> Banknote accepted: 20,000.00
SAS 2022-10-15 19:39:47.611 >> SAS 1 Exception sent: 4F
SAS 2022-10-15 19:40:08.074 >> Game 343674: Bets: 5,000.00 Num: 1 Win: 0.00 Jackpot: 0.00 Tip: 0.00
SAS 2022-10-15 19:40:08.251 >> SAS 1 Exception sent: 7E
GM  2022-10-15 19:40:08.271 >> Game played: Position: 0 Selected: 1 ID: 343674 Bets: 5,000.00 Win: 0.00 Tip: 0.00 Reel stops: 1-1
GM  2022-10-15 19:40:08.272 >> Command from game : 01
SAS 2022-10-15 19:40:08.474 >> SAS 1 Exception sent: 7F
SAS 2022-10-15 19:41:07.874 >> Game 343675: Bets: 19,200.00 Num: 23 Win: 0.00 Jackpot: 0.00 Tip: 0.00
SAS 2022-10-15 19:41:07.947 >> SAS 1 Exception sent: 7E
GM  2022-10-15 19:41:08.081 >> Game played: Position: 0 Selected: 1 ID: 343675 Bets: 19,200.00 Win: 0.00 Tip: 0.00 Reel stops: 1-23
GM  2022-10-15 19:41:08.092 >> Command from game : 01
SAS 2022-10-15 19:41:08.398 >> SAS 1 Exception sent: 7F
BA  2022-10-15 19:41:28.998 >> Banknote COP 2,000.00
BA  2022-10-15 19:41:28.998 >> Banknote inserted: 2,000.00 (#2)
SAS 2022-10-15 19:41:30.013 >> Banknote accepted: 2,000.00
SAS 2022-10-15 19:41:30.030 >> SAS 1 Exception sent: 4F
SAS 2022-10-15 19:42:09.121 >> Game 343676: Bets: 2,800.00 Num: 27 Win: 0.00 Jackpot: 0.00 Tip: 0.00
GM  2022-10-15 19:42:09.279 >> Game played: Position: 0 Selected: 1 ID: 343676 Bets: 2,800.00 Win: 0.00 Tip: 0.00 Reel stops: 1-27
GM  2022-10-15 19:42:09.286 >> Command from game : 01
SAS 2022-10-15 19:42:09.527 >> SAS 1 Exception sent: 7E
SAS 2022-10-15 19:42:09.978 >> SAS 1 Exception sent: 7F
BA  2022-10-15 19:47:20.655 >> Banknote COP 10,000.00
BA  2022-10-15 19:47:20.655 >> Banknote inserted: 10,000.00 (#4)
SAS 2022-10-15 19:47:21.872 >> Banknote accepted: 10,000.00
SAS 2022-10-15 19:47:21.929 >> SAS 1 Exception sent: 4F
BA  2022-10-15 19:47:27.155 >> Banknote COP 10,000.00
BA  2022-10-15 19:47:27.155 >> Banknote inserted: 10,000.00 (#4)
SAS 2022-10-15 19:47:28.159 >> Banknote accepted: 10,000.00
SAS 2022-10-15 19:47:28.308 >> SAS 1 Exception sent: 4F
BA  2022-10-15 19:48:15.817 >> Banknote COP 10,000.00
BA  2022-10-15 19:48:15.817 >> Banknote inserted: 10,000.00 (#4)
SAS 2022-10-15 19:48:17.034 >> Banknote accepted: 10,000.00
SAS 2022-10-15 19:48:17.137 >> SAS 1 Exception sent: 4F
SAS 2022-10-15 19:49:04.298 >> Game 343682: Bets: 30,000.00 Num: 16 Win: 14,400.00 Jackpot: 0.00 Tip: 0.00
SAS 2022-10-15 19:49:04.594 >> SAS 1 Exception sent: 7E
GM  2022-10-15 19:49:04.738 >> Game played: Position: 0 Selected: 1 ID: 343682 Bets: 30,000.00 Win: 14,400.00 Tip: 0.00 Reel stops: 1-16
GM  2022-10-15 19:49:04.744 >> Command from game : 01
SAS 2022-10-15 19:49:04.817 >> SAS 1 Exception sent: 7F
SAS 2022-10-15 19:50:09.399 >> Game 343683: Bets: 14,400.00 Num: 11 Win: 21,600.00 Jackpot: 0.00 Tip: 0.00
GM  2022-10-15 19:50:09.636 >> Game played: Position: 0 Selected: 1 ID: 343683 Bets: 14,400.00 Win: 21,600.00 Tip: 0.00 Reel stops: 1-11
GM  2022-10-15 19:50:09.636 >> Command from game : 01
SAS 2022-10-15 19:50:09.777 >> SAS 1 Exception sent: 7E
SAS 2022-10-15 19:50:10.264 >> SAS 1 Exception sent: 7F
BA  2022-10-15 19:50:21.151 >> Banknote COP 50,000.00
BA  2022-10-15 19:50:21.151 >> Banknote inserted: 50,000.00 (#6)
SAS 2022-10-15 19:50:22.173 >> Banknote accepted: 50,000.00
SAS 2022-10-15 19:50:22.356 >> SAS 1 Exception sent: 4F
SAS 2022-10-15 19:51:22.214 >> Game 343684: Bets: 41,600.00 Num: 33 Win: 0.00 Jackpot: 0.00 Tip: 0.00
GM  2022-10-15 19:51:22.401 >> Game played: Position: 0 Selected: 1 ID: 343684 Bets: 41,600.00 Win: 0.00 Tip: 0.00 Reel stops: 1-33
GM  2022-10-15 19:51:22.414 >> Command from game : 01
SAS 2022-10-15 19:51:22.494 >> SAS 1 Exception sent: 7E
SAS 2022-10-15 19:51:22.945 >> SAS 1 Exception sent: 7F
BA  2022-10-15 19:51:59.711 >> Banknote COP 50,000.00
BA  2022-10-15 19:51:59.711 >> Banknote inserted: 50,000.00 (#6)
SAS 2022-10-15 19:52:00.724 >> Banknote accepted: 50,000.00
SAS 2022-10-15 19:52:00.924 >> SAS 1 Exception sent: 4F
SAS 2022-10-15 19:52:33.384 >> Game 343685: Bets: 59,000.00 Num: 18 Win: 90,000.00 Jackpot: 0.00 Tip: 0.00
GM  2022-10-15 19:52:33.575 >> Game played: Position: 0 Selected: 1 ID: 343685 Bets: 59,000.00 Win: 90,000.00 Tip: 0.00 Reel stops: 1-18
GM  2022-10-15 19:52:33.575 >> Command from game : 01
SAS 2022-10-15 19:52:33.722 >> SAS 1 Exception sent: 7E
SAS 2022-10-15 19:52:33.945 >> SAS 1 Exception sent: 7F
SAS 2022-10-15 19:53:33.785 >> Game 343686: Bets: 81,400.00 Num: 10 Win: 54,000.00 Jackpot: 0.00 Tip: 0.00
SAS 2022-10-15 19:53:33.880 >> SAS 1 Exception sent: 7E
SAS 2022-10-15 19:53:34.104 >> SAS 1 Exception sent: 7F
GM  2022-10-15 19:53:34.116 >> Game played: Position: 0 Selected: 1 ID: 343686 Bets: 81,400.00 Win: 54,000.00 Tip: 0.00 Reel stops: 1-10
GM  2022-10-15 19:53:34.127 >> Command from game : 01
SAS 2022-10-15 19:54:36.114 >> Game 343687: Bets: 60,000.00 Num: 32 Win: 36,000.00 Jackpot: 0.00 Tip: 0.00
GM  2022-10-15 19:54:36.299 >> Game played: Position: 0 Selected: 1 ID: 343687 Bets: 60,000.00 Win: 36,000.00 Tip: 0.00 Reel stops: 1-32
GM  2022-10-15 19:54:36.310 >> Command from game : 01
SAS 2022-10-15 19:54:36.333 >> SAS 1 Exception sent: 7E
SAS 2022-10-15 19:54:36.556 >> SAS 1 Exception sent: 7F
SAS 2022-10-15 19:55:34.549 >> Game 343688: Bets: 57,400.00 Num: 15 Win: 165,600.00 Jackpot: 0.00 Tip: 0.00
SAS 2022-10-15 19:55:34.662 >> SAS 1 Exception sent: 7E
GM  2022-10-15 19:55:34.714 >> Game played: Position: 0 Selected: 1 ID: 343688 Bets: 57,400.00 Win: 165,600.00 Tip: 0.00 Reel stops: 1-15
GM  2022-10-15 19:55:34.721 >> Command from game : 01
SAS 2022-10-15 19:55:34.886 >> SAS 1 Exception sent: 7F
SAS 2022-10-15 19:56:59.469 >> Game 343689: Bets: 76,800.00 Num: 29 Win: 36,000.00 Jackpot: 0.00 Tip: 0.00
SAS 2022-10-15 19:56:59.595 >> SAS 1 Exception sent: 7E
GM  2022-10-15 19:56:59.675 >> Game played: Position: 0 Selected: 1 ID: 343689 Bets: 76,800.00 Win: 36,000.00 Tip: 0.00 Reel stops: 1-29
GM  2022-10-15 19:56:59.681 >> Command from game : 01
SAS 2022-10-15 19:57:00.101 >> SAS 1 Exception sent: 7F
SAS 2022-10-15 19:58:02.538 >> Game 343690: Bets: 113,800.00 Num: 34 Win: 50,400.00 Jackpot: 0.00 Tip: 0.00
SAS 2022-10-15 19:58:02.690 >> SAS 1 Exception sent: 7E
GM  2022-10-15 19:58:02.723 >> Game played: Position: 0 Selected: 1 ID: 343690 Bets: 113,800.00 Win: 50,400.00 Tip: 0.00 Reel stops: 1-34
GM  2022-10-15 19:58:02.724 >> Command from game : 01
SAS 2022-10-15 19:58:03.141 >> SAS 1 Exception sent: 7F
SAS 2022-10-15 19:59:16.821 >> Game 343691: Bets: 55,000.00 Num: 1 Win: 0.00 Jackpot: 0.00 Tip: 0.00
SAS 2022-10-15 19:59:16.852 >> SAS 1 Exception sent: 7E
GM  2022-10-15 19:59:17.035 >> Game played: Position: 0 Selected: 1 ID: 343691 Bets: 55,000.00 Win: 0.00 Tip: 0.00 Reel stops: 1-1
GM  2022-10-15 19:59:17.036 >> Command from game : 01
SAS 2022-10-15 19:59:17.302 >> SAS 1 Exception sent: 7F
BA  2022-10-15 19:59:32.162 >> Banknote COP 2,000.00
BA  2022-10-15 19:59:32.162 >> Banknote inserted: 2,000.00 (#2)
SAS 2022-10-15 19:59:33.173 >> Banknote accepted: 2,000.00
SAS 2022-10-15 19:59:33.383 >> SAS 1 Exception sent: 4F
BA  2022-10-15 19:59:35.616 >> Banknote COP 2,000.00
BA  2022-10-15 19:59:35.616 >> Banknote inserted: 2,000.00 (#2)
SAS 2022-10-15 19:59:36.632 >> Banknote accepted: 2,000.00
SAS 2022-10-15 19:59:36.802 >> SAS 1 Exception sent: 4F
