LOG 2022-10-21 21:00:00.216 >> Alfastreet Account Server V4.24.7.0 DLL: Alfastreet Alfa Account V4.24.7.0 - AL000 602 1
BA  2022-10-21 21:17:08.016 >> Banknote COP 20,000.00
BA  2022-10-21 21:17:08.016 >> Banknote inserted: 20,000.00 (#5)
SAS 2022-10-21 21:17:09.028 >> Banknote accepted: 20,000.00
SAS 2022-10-21 21:17:09.385 >> SAS 1 Exception sent: 4F
SAS 2022-10-21 21:17:32.351 >> Game 346200: Bets: 9,000.00 Num: 26 Win: 0.00 Jackpot: 0.00 Tip: 0.00
SAS 2022-10-21 21:17:32.468 >> SAS 1 Exception sent: 7E
GM  2022-10-21 21:17:32.517 >> Game played: Position: 0 Selected: 1 ID: 346200 Bets: 9,000.00 Win: 0.00 Tip: 0.00 Reel stops: 1-26
GM  2022-10-21 21:17:32.532 >> Command from game : 01
SAS 2022-10-21 21:17:32.918 >> SAS 1 Exception sent: 7F
SAS 2022-10-21 21:18:32.100 >> Game 346201: Bets: 11,000.00 Num: 26 Win: 0.00 Jackpot: 0.00 Tip: 0.00
GM  2022-10-21 21:18:32.219 >> Game played: Position: 0 Selected: 1 ID: 346201 Bets: 11,000.00 Win: 0.00 Tip: 0.00 Reel stops: 1-26
GM  2022-10-21 21:18:32.254 >> Command from game : 01
SAS 2022-10-21 21:18:32.533 >> SAS 1 Exception sent: 7E
SAS 2022-10-21 21:18:33.008 >> SAS 1 Exception sent: 7F
GM  2022-10-21 21:33:40.161 >> Player denomination 0: 200.00
GM  2022-10-21 21:33:40.161 >> Player denomination 1: 100.00
GM  2022-10-21 21:33:40.161 >> Player denomination 2: 200.00
GM  2022-10-21 21:33:40.161 >> Player denomination 3: 500.00
GM  2022-10-21 21:33:40.161 >> Player denomination 4: 1,000.00
GM  2022-10-21 21:33:40.161 >> Player denomination 5: 0.00
GM  2022-10-21 21:33:40.161 >> Player denomination 6: 0.00
GM  2022-10-21 21:33:40.161 >> Player denomination 7: 0.00
GM  2022-10-21 21:33:40.161 >> Player denomination 8: 0.00
GM  2022-10-21 21:33:40.161 >> Player denomination 9: 0.00
GM  2022-10-21 21:33:40.161 >> Player denomination 10: 0.00
BA  2022-10-21 21:39:07.074 >> Ticket inserted: 00-xxxx-xxxx-xxxx-8634
SAS 2022-10-21 21:39:07.464 >> SAS 1 Exception sent: 67
BA  2022-10-21 21:39:09.506 >> Banknote or Ticket returned
SAS 2022-10-21 21:39:09.530 >> SAS 1 Exception sent: 2B
