LOG 2022-11-01 17:00:00.347 >> Alfastreet Account Server V4.24.7.0 DLL: Alfastreet Alfa Account V4.24.7.0 - AL000 602 1
BA  2022-11-01 17:04:40.623 >> Banknote COP 20,000.00
BA  2022-11-01 17:04:40.623 >> Banknote inserted: 20,000.00 (#5)
SAS 2022-11-01 17:04:41.643 >> Banknote accepted: 20,000.00
SAS 2022-11-01 17:04:41.684 >> SAS 1 Exception sent: 4F
BA  2022-11-01 17:05:19.568 >> Banknote COP 20,000.00
BA  2022-11-01 17:05:19.568 >> Banknote inserted: 20,000.00 (#5)
SAS 2022-11-01 17:05:20.575 >> Banknote accepted: 20,000.00
SAS 2022-11-01 17:05:20.776 >> SAS 1 Exception sent: 4F
SAS 2022-11-01 17:06:01.803 >> Game 350407: Bets: 30,000.00 Num: 8 Win: 0.00 Jackpot: 0.00 Tip: 0.00
SAS 2022-11-01 17:06:01.842 >> SAS 1 Exception sent: 7E
GM  2022-11-01 17:06:02.003 >> Game played: Position: 0 Selected: 1 ID: 350407 Bets: 30,000.00 Win: 0.00 Tip: 0.00 Reel stops: 1-8
GM  2022-11-01 17:06:02.004 >> Command from game : 01
SAS 2022-11-01 17:06:02.090 >> SAS 1 Exception sent: 7F
BA  2022-11-01 17:06:05.591 >> Banknote COP 10,000.00
BA  2022-11-01 17:06:05.591 >> Banknote inserted: 10,000.00 (#4)
SAS 2022-11-01 17:06:06.607 >> Banknote accepted: 10,000.00
SAS 2022-11-01 17:06:06.681 >> SAS 1 Exception sent: 4F
SAS 2022-11-01 17:07:01.956 >> Game 350408: Bets: 20,000.00 Num: 12 Win: 72,000.00 Jackpot: 0.00 Tip: 0.00
SAS 2022-11-01 17:07:02.065 >> SAS 1 Exception sent: 7E
GM  2022-11-01 17:07:02.123 >> Game played: Position: 0 Selected: 1 ID: 350408 Bets: 20,000.00 Win: 72,000.00 Tip: 0.00 Reel stops: 1-12
GM  2022-11-01 17:07:02.131 >> Command from game : 01
SAS 2022-11-01 17:07:02.515 >> SAS 1 Exception sent: 7F
BA  2022-11-01 17:07:14.342 >> Banknote COP 5,000.00
BA  2022-11-01 17:07:14.342 >> Banknote inserted: 5,000.00 (#3)
SAS 2022-11-01 17:07:15.356 >> Banknote accepted: 5,000.00
SAS 2022-11-01 17:07:15.519 >> SAS 1 Exception sent: 4F
SAS 2022-11-01 17:08:01.533 >> Game 350409: Bets: 23,000.00 Num: 13 Win: 0.00 Jackpot: 0.00 Tip: 0.00
SAS 2022-11-01 17:08:01.654 >> SAS 1 Exception sent: 7E
GM  2022-11-01 17:08:01.767 >> Game played: Position: 0 Selected: 1 ID: 350409 Bets: 23,000.00 Win: 0.00 Tip: 0.00 Reel stops: 1-13
GM  2022-11-01 17:08:01.774 >> Command from game : 01
SAS 2022-11-01 17:08:02.108 >> SAS 1 Exception sent: 7F
GM  2022-11-01 17:08:07.263 >> Payout request: 54,000.00 / 0.00 / 0.00
SAS 2022-11-01 17:08:07.263 >> Payout initiated by player: 54,000.00 / 0.00 / 0.00
SAS 2022-11-01 17:08:07.263 >> Handpay init Amount: 54,000.00/0.00/0.00
SAS 2022-11-01 17:08:07.309 >> Initiate ticket (0) Amount: 54,000.00
SAS 2022-11-01 17:08:07.309 >> Send ticket data to printer (0): 00-xxxx-xxxx-xxxx-0136 Amount: 54,000.00
PRN 2022-11-01 17:08:07.309 >> Ticket prepared: 00-xxxx-xxxx-xxxx-0136 Amount: 54,000.00
SAS 2022-11-01 17:08:07.355 >> Handpay redirected to Ticket Printer.
SAS 2022-11-01 17:08:07.575 >> SAS 1 Exception sent: 66
PRN 2022-11-01 17:08:08.324 >> Ticket print commmand sent
PRN 2022-11-01 17:08:08.428 >> Ticket printing
SAS 2022-11-01 17:08:09.633 >> Ticket #710 printed: 00-xxxx-xxxx-xxxx-0136 Amount: 54,000.00
SAS 2022-11-01 17:08:09.837 >> SAS 1 Exception sent: 3D
BA  2022-11-01 17:08:11.743 >> Banknote COP 20,000.00
BA  2022-11-01 17:08:11.743 >> Banknote inserted: 20,000.00 (#5)
SAS 2022-11-01 17:08:12.556 >> Banknote accepted: 20,000.00
SAS 2022-11-01 17:08:12.597 >> SAS 1 Exception sent: 4F
SAS 2022-11-01 17:09:01.536 >> Game 350410: Bets: 20,000.00 Num: 11 Win: 126,000.00 Jackpot: 0.00 Tip: 0.00
GM  2022-11-01 17:09:01.739 >> Game played: Position: 0 Selected: 1 ID: 350410 Bets: 20,000.00 Win: 126,000.00 Tip: 0.00 Reel stops: 1-11
GM  2022-11-01 17:09:01.763 >> Command from game : 01
SAS 2022-11-01 17:09:01.955 >> SAS 1 Exception sent: 7E
SAS 2022-11-01 17:09:02.411 >> SAS 1 Exception sent: 7F
BA  2022-11-01 17:09:55.773 >> Ticket inserted: 00-xxxx-xxxx-xxxx-0136
SAS 2022-11-01 17:09:55.927 >> SAS 1 Exception sent: 67
SAS 2022-11-01 17:09:57.809 >> Ticket accepted: 00-0452-1922-0942-0136 Amount: 54,000.00
SAS 2022-11-01 17:09:58.002 >> SAS 1 Exception sent: 68
BA  2022-11-01 17:10:01.653 >> Ticket inserted: 00-xxxx-xxxx-xxxx-9319
SAS 2022-11-01 17:10:01.908 >> SAS 1 Exception sent: 67
SAS 2022-11-01 17:10:04.097 >> Ticket accepted: 00-2795-4600-1241-9319 Amount: 45,000.00
SAS 2022-11-01 17:10:04.210 >> SAS 1 Exception sent: 68
SAS 2022-11-01 17:10:04.821 >> Game 350411: Bets: 35,000.00 Num: 5 Win: 0.00 Jackpot: 0.00 Tip: 0.00
SAS 2022-11-01 17:10:04.924 >> SAS 1 Exception sent: 7E
GM  2022-11-01 17:10:04.938 >> Game played: Position: 0 Selected: 1 ID: 350411 Bets: 35,000.00 Win: 0.00 Tip: 0.00 Reel stops: 1-5
GM  2022-11-01 17:10:04.959 >> Command from game : 01
SAS 2022-11-01 17:10:05.148 >> SAS 1 Exception sent: 7F
SAS 2022-11-01 17:11:06.006 >> Game 350412: Bets: 35,000.00 Num: 35 Win: 36,000.00 Jackpot: 0.00 Tip: 0.00
GM  2022-11-01 17:11:06.206 >> Game played: Position: 0 Selected: 1 ID: 350412 Bets: 35,000.00 Win: 36,000.00 Tip: 0.00 Reel stops: 1-35
GM  2022-11-01 17:11:06.206 >> Command from game : 01
SAS 2022-11-01 17:11:06.224 >> SAS 1 Exception sent: 7E
SAS 2022-11-01 17:11:06.675 >> SAS 1 Exception sent: 7F
SAS 2022-11-01 17:12:03.903 >> Game 350413: Bets: 38,000.00 Num: 17 Win: 126,000.00 Jackpot: 0.00 Tip: 0.00
SAS 2022-11-01 17:12:03.936 >> SAS 1 Exception sent: 7E
GM  2022-11-01 17:12:04.102 >> Game played: Position: 0 Selected: 1 ID: 350413 Bets: 38,000.00 Win: 126,000.00 Tip: 0.00 Reel stops: 1-17
GM  2022-11-01 17:12:04.103 >> Command from game : 01
SAS 2022-11-01 17:12:04.159 >> SAS 1 Exception sent: 7F
SAS 2022-11-01 17:13:02.921 >> Game 350414: Bets: 34,000.00 Num: 23 Win: 0.00 Jackpot: 0.00 Tip: 0.00
GM  2022-11-01 17:13:03.116 >> Game played: Position: 0 Selected: 1 ID: 350414 Bets: 34,000.00 Win: 0.00 Tip: 0.00 Reel stops: 1-23
GM  2022-11-01 17:13:03.124 >> Command from game : 01
SAS 2022-11-01 17:13:03.266 >> SAS 1 Exception sent: 7E
SAS 2022-11-01 17:13:03.746 >> SAS 1 Exception sent: 7F
SAS 2022-11-01 17:14:06.338 >> Game 350415: Bets: 25,000.00 Num: 3 Win: 36,000.00 Jackpot: 0.00 Tip: 0.00
SAS 2022-11-01 17:14:06.391 >> SAS 1 Exception sent: 7E
GM  2022-11-01 17:14:06.515 >> Game played: Position: 0 Selected: 1 ID: 350415 Bets: 25,000.00 Win: 36,000.00 Tip: 0.00 Reel stops: 1-3
GM  2022-11-01 17:14:06.521 >> Command from game : 01
SAS 2022-11-01 17:14:06.615 >> SAS 1 Exception sent: 7F
SAS 2022-11-01 17:15:05.425 >> Game 350416: Bets: 32,000.00 Num: 12 Win: 0.00 Jackpot: 0.00 Tip: 0.00
GM  2022-11-01 17:15:05.597 >> Game played: Position: 0 Selected: 1 ID: 350416 Bets: 32,000.00 Win: 0.00 Tip: 0.00 Reel stops: 1-12
GM  2022-11-01 17:15:05.598 >> Command from game : 01
SAS 2022-11-01 17:15:05.715 >> SAS 1 Exception sent: 7E
SAS 2022-11-01 17:15:06.166 >> SAS 1 Exception sent: 7F
GM  2022-11-01 17:15:12.129 >> Payout request: 224,000.00 / 0.00 / 0.00
SAS 2022-11-01 17:15:12.129 >> Payout initiated by player: 224,000.00 / 0.00 / 0.00
SAS 2022-11-01 17:15:12.129 >> Handpay init Amount: 224,000.00/0.00/0.00
SAS 2022-11-01 17:15:12.186 >> Initiate ticket (0) Amount: 224,000.00
SAS 2022-11-01 17:15:12.186 >> Send ticket data to printer (0): 00-xxxx-xxxx-xxxx-3792 Amount: 224,000.00
PRN 2022-11-01 17:15:12.186 >> Ticket prepared: 00-xxxx-xxxx-xxxx-3792 Amount: 224,000.00
SAS 2022-11-01 17:15:12.208 >> Handpay redirected to Ticket Printer.
SAS 2022-11-01 17:15:12.294 >> SAS 1 Exception sent: 66
PRN 2022-11-01 17:15:13.223 >> Ticket print commmand sent
PRN 2022-11-01 17:15:13.326 >> Ticket printing
SAS 2022-11-01 17:15:13.440 >> Ticket #711 printed: 00-xxxx-xxxx-xxxx-3792 Amount: 224,000.00
SAS 2022-11-01 17:15:13.661 >> SAS 1 Exception sent: 3D
BA  2022-11-01 17:15:19.446 >> Banknote or Ticket rejected
SAS 2022-11-01 17:15:19.605 >> SAS 1 Exception sent: 2B
BA  2022-11-01 17:15:29.585 >> Banknote COP 20,000.00
BA  2022-11-01 17:15:29.585 >> Banknote inserted: 20,000.00 (#5)
SAS 2022-11-01 17:15:30.607 >> Banknote accepted: 20,000.00
SAS 2022-11-01 17:15:30.743 >> SAS 1 Exception sent: 4F
SAS 2022-11-01 17:16:06.607 >> Game 350417: Bets: 20,000.00 Num: 20 Win: 0.00 Jackpot: 0.00 Tip: 0.00
GM  2022-11-01 17:16:06.841 >> Game played: Position: 0 Selected: 1 ID: 350417 Bets: 20,000.00 Win: 0.00 Tip: 0.00 Reel stops: 1-20
GM  2022-11-01 17:16:06.849 >> Command from game : 01
SAS 2022-11-01 17:16:06.881 >> SAS 1 Exception sent: 7E
SAS 2022-11-01 17:16:07.105 >> SAS 1 Exception sent: 7F
BA  2022-11-01 17:16:10.356 >> Banknote COP 20,000.00
BA  2022-11-01 17:16:10.356 >> Banknote inserted: 20,000.00 (#5)
SAS 2022-11-01 17:16:11.370 >> Banknote accepted: 20,000.00
SAS 2022-11-01 17:16:11.405 >> SAS 1 Exception sent: 4F
SAS 2022-11-01 17:17:07.246 >> Game 350418: Bets: 20,000.00 Num: 5 Win: 0.00 Jackpot: 0.00 Tip: 0.00
GM  2022-11-01 17:17:07.437 >> Game played: Position: 0 Selected: 1 ID: 350418 Bets: 20,000.00 Win: 0.00 Tip: 0.00 Reel stops: 1-5
GM  2022-11-01 17:17:07.437 >> Command from game : 01
SAS 2022-11-01 17:17:07.438 >> SAS 1 Exception sent: 7E
SAS 2022-11-01 17:17:07.662 >> SAS 1 Exception sent: 7F
BA  2022-11-01 17:17:29.449 >> Banknote or Ticket rejected
SAS 2022-11-01 17:17:29.520 >> SAS 1 Exception sent: 2B
BA  2022-11-01 17:17:44.039 >> Banknote COP 20,000.00
BA  2022-11-01 17:17:44.039 >> Banknote inserted: 20,000.00 (#5)
SAS 2022-11-01 17:17:44.850 >> Banknote accepted: 20,000.00
SAS 2022-11-01 17:17:44.901 >> SAS 1 Exception sent: 4F
BA  2022-11-01 17:18:29.875 >> Banknote COP 20,000.00
BA  2022-11-01 17:18:29.875 >> Banknote inserted: 20,000.00 (#5)
SAS 2022-11-01 17:18:30.684 >> Banknote accepted: 20,000.00
SAS 2022-11-01 17:18:30.744 >> SAS 1 Exception sent: 4F
SAS 2022-11-01 17:19:02.426 >> Game 350420: Bets: 26,000.00 Num: 19 Win: 0.00 Jackpot: 0.00 Tip: 0.00
GM  2022-11-01 17:19:02.625 >> Game played: Position: 0 Selected: 1 ID: 350420 Bets: 26,000.00 Win: 0.00 Tip: 0.00 Reel stops: 1-19
GM  2022-11-01 17:19:02.626 >> Command from game : 01
SAS 2022-11-01 17:19:02.636 >> SAS 1 Exception sent: 7E
SAS 2022-11-01 17:19:03.086 >> SAS 1 Exception sent: 7F
BA  2022-11-01 17:19:08.618 >> Banknote COP 20,000.00
BA  2022-11-01 17:19:08.618 >> Banknote inserted: 20,000.00 (#5)
SAS 2022-11-01 17:19:09.419 >> Banknote accepted: 20,000.00
SAS 2022-11-01 17:19:09.483 >> SAS 1 Exception sent: 4F
SAS 2022-11-01 17:20:00.999 >> Game 350421: Bets: 30,000.00 Num: 28 Win: 72,000.00 Jackpot: 0.00 Tip: 0.00
GM  2022-11-01 17:20:01.229 >> Game played: Position: 0 Selected: 1 ID: 350421 Bets: 30,000.00 Win: 72,000.00 Tip: 0.00 Reel stops: 1-28
SAS 2022-11-01 17:20:01.236 >> SAS 1 Exception sent: 7E
GM  2022-11-01 17:20:01.253 >> Command from game : 01
SAS 2022-11-01 17:20:01.459 >> SAS 1 Exception sent: 7F
SAS 2022-11-01 17:21:03.348 >> Game 350422: Bets: 31,000.00 Num: 31 Win: 0.00 Jackpot: 0.00 Tip: 0.00
SAS 2022-11-01 17:21:03.444 >> SAS 1 Exception sent: 7E
GM  2022-11-01 17:21:03.562 >> Game played: Position: 0 Selected: 1 ID: 350422 Bets: 31,000.00 Win: 0.00 Tip: 0.00 Reel stops: 1-31
GM  2022-11-01 17:21:03.586 >> Command from game : 01
SAS 2022-11-01 17:21:03.667 >> SAS 1 Exception sent: 7F
SAS 2022-11-01 17:22:04.270 >> Game 350423: Bets: 25,000.00 Num: 6 Win: 0.00 Jackpot: 0.00 Tip: 0.00
GM  2022-11-01 17:22:04.416 >> Game played: Position: 0 Selected: 1 ID: 350423 Bets: 25,000.00 Win: 0.00 Tip: 0.00 Reel stops: 1-6
GM  2022-11-01 17:22:04.424 >> Command from game : 01
SAS 2022-11-01 17:22:04.605 >> SAS 1 Exception sent: 7E
SAS 2022-11-01 17:22:05.075 >> SAS 1 Exception sent: 7F
SAS 2022-11-01 17:23:04.047 >> Game 350424: Bets: 20,000.00 Num: 30 Win: 0.00 Jackpot: 0.00 Tip: 0.00
GM  2022-11-01 17:23:04.234 >> Game played: Position: 0 Selected: 1 ID: 350424 Bets: 20,000.00 Win: 0.00 Tip: 0.00 Reel stops: 1-30
GM  2022-11-01 17:23:04.245 >> Command from game : 01
SAS 2022-11-01 17:23:04.368 >> SAS 1 Exception sent: 7E
SAS 2022-11-01 17:23:04.819 >> SAS 1 Exception sent: 7F
BA  2022-11-01 17:23:07.722 >> Banknote COP 20,000.00
BA  2022-11-01 17:23:07.722 >> Banknote inserted: 20,000.00 (#5)
SAS 2022-11-01 17:23:08.736 >> Banknote accepted: 20,000.00
SAS 2022-11-01 17:23:08.910 >> SAS 1 Exception sent: 4F
BA  2022-11-01 17:23:34.887 >> Banknote COP 20,000.00
BA  2022-11-01 17:23:34.887 >> Banknote inserted: 20,000.00 (#5)
SAS 2022-11-01 17:23:35.702 >> Banknote accepted: 20,000.00
SAS 2022-11-01 17:23:35.996 >> SAS 1 Exception sent: 4F
SAS 2022-11-01 17:24:04.480 >> Game 350425: Bets: 27,000.00 Num: 0 Win: 0.00 Jackpot: 0.00 Tip: 0.00
SAS 2022-11-01 17:24:04.523 >> SAS 1 Exception sent: 7E
GM  2022-11-01 17:24:04.656 >> Game played: Position: 0 Selected: 1 ID: 350425 Bets: 27,000.00 Win: 0.00 Tip: 0.00 Reel stops: 1-0
GM  2022-11-01 17:24:04.663 >> Command from game : 01
SAS 2022-11-01 17:24:04.991 >> SAS 1 Exception sent: 7F
BA  2022-11-01 17:24:09.779 >> Banknote or Ticket rejected
SAS 2022-11-01 17:24:09.983 >> SAS 1 Exception sent: 2B
BA  2022-11-01 17:24:14.635 >> Banknote COP 20,000.00
BA  2022-11-01 17:24:14.635 >> Banknote inserted: 20,000.00 (#5)
SAS 2022-11-01 17:24:15.649 >> Banknote accepted: 20,000.00
SAS 2022-11-01 17:24:15.964 >> SAS 1 Exception sent: 4F
SAS 2022-11-01 17:25:03.769 >> Game 350426: Bets: 33,000.00 Num: 36 Win: 108,000.00 Jackpot: 0.00 Tip: 0.00
GM  2022-11-01 17:25:04.008 >> Game played: Position: 0 Selected: 1 ID: 350426 Bets: 33,000.00 Win: 108,000.00 Tip: 0.00 Reel stops: 1-36
GM  2022-11-01 17:25:04.009 >> Command from game : 01
SAS 2022-11-01 17:25:04.109 >> SAS 1 Exception sent: 7E
SAS 2022-11-01 17:25:04.559 >> SAS 1 Exception sent: 7F
GM  2022-11-01 17:25:09.957 >> Payout request: 108,000.00 / 0.00 / 0.00
SAS 2022-11-01 17:25:09.957 >> Payout initiated by player: 108,000.00 / 0.00 / 0.00
SAS 2022-11-01 17:25:09.957 >> Handpay init Amount: 108,000.00/0.00/0.00
SAS 2022-11-01 17:25:10.055 >> Initiate ticket (0) Amount: 108,000.00
SAS 2022-11-01 17:25:10.055 >> Send ticket data to printer (0): 00-xxxx-xxxx-xxxx-0328 Amount: 108,000.00
PRN 2022-11-01 17:25:10.055 >> Ticket prepared: 00-xxxx-xxxx-xxxx-0328 Amount: 108,000.00
SAS 2022-11-01 17:25:10.086 >> Handpay redirected to Ticket Printer.
PRN 2022-11-01 17:25:10.120 >> Ticket print commmand sent
SAS 2022-11-01 17:25:10.222 >> SAS 1 Exception sent: 66
PRN 2022-11-01 17:25:10.224 >> Ticket printing
SAS 2022-11-01 17:25:10.330 >> Ticket #712 printed: 00-xxxx-xxxx-xxxx-0328 Amount: 108,000.00
SAS 2022-11-01 17:25:10.690 >> SAS 1 Exception sent: 3D
BA  2022-11-01 17:25:16.287 >> Banknote COP 50,000.00
BA  2022-11-01 17:25:16.287 >> Banknote inserted: 50,000.00 (#6)
SAS 2022-11-01 17:25:17.301 >> Banknote accepted: 50,000.00
SAS 2022-11-01 17:25:17.317 >> SAS 1 Exception sent: 4F
SAS 2022-11-01 17:26:07.986 >> Game 350427: Bets: 29,000.00 Num: 33 Win: 0.00 Jackpot: 0.00 Tip: 0.00
GM  2022-11-01 17:26:08.136 >> Game played: Position: 0 Selected: 1 ID: 350427 Bets: 29,000.00 Win: 0.00 Tip: 0.00 Reel stops: 1-33
GM  2022-11-01 17:26:08.151 >> Command from game : 01
SAS 2022-11-01 17:26:08.276 >> SAS 1 Exception sent: 7E
SAS 2022-11-01 17:26:08.761 >> SAS 1 Exception sent: 7F
SAS 2022-11-01 17:27:11.835 >> Game 350428: Bets: 21,000.00 Num: 13 Win: 72,000.00 Jackpot: 0.00 Tip: 0.00
SAS 2022-11-01 17:27:11.891 >> SAS 1 Exception sent: 7E
GM  2022-11-01 17:27:12.034 >> Game played: Position: 0 Selected: 1 ID: 350428 Bets: 21,000.00 Win: 72,000.00 Tip: 0.00 Reel stops: 1-13
GM  2022-11-01 17:27:12.034 >> Command from game : 01
SAS 2022-11-01 17:27:12.341 >> SAS 1 Exception sent: 7F
SAS 2022-11-01 17:28:13.219 >> Game 350429: Bets: 29,000.00 Num: 5 Win: 0.00 Jackpot: 0.00 Tip: 0.00
SAS 2022-11-01 17:28:13.254 >> SAS 1 Exception sent: 7E
GM  2022-11-01 17:28:13.371 >> Game played: Position: 0 Selected: 1 ID: 350429 Bets: 29,000.00 Win: 0.00 Tip: 0.00 Reel stops: 1-5
GM  2022-11-01 17:28:13.372 >> Command from game : 01
SAS 2022-11-01 17:28:13.477 >> SAS 1 Exception sent: 7F
SAS 2022-11-01 17:29:12.803 >> Game 350430: Bets: 29,000.00 Num: 5 Win: 0.00 Jackpot: 0.00 Tip: 0.00
GM  2022-11-01 17:29:12.978 >> Game played: Position: 0 Selected: 1 ID: 350430 Bets: 29,000.00 Win: 0.00 Tip: 0.00 Reel stops: 1-5
GM  2022-11-01 17:29:12.989 >> Command from game : 01
SAS 2022-11-01 17:29:13.293 >> SAS 1 Exception sent: 7E
SAS 2022-11-01 17:29:13.744 >> SAS 1 Exception sent: 7F
BA  2022-11-01 17:29:21.879 >> Banknote COP 20,000.00
BA  2022-11-01 17:29:21.879 >> Banknote inserted: 20,000.00 (#5)
SAS 2022-11-01 17:29:22.896 >> Banknote accepted: 20,000.00
SAS 2022-11-01 17:29:23.318 >> SAS 1 Exception sent: 4F
SAS 2022-11-01 17:30:14.805 >> Game 350431: Bets: 32,000.00 Num: 3 Win: 108,000.00 Jackpot: 0.00 Tip: 0.00
GM  2022-11-01 17:30:14.994 >> Game played: Position: 0 Selected: 1 ID: 350431 Bets: 32,000.00 Win: 108,000.00 Tip: 0.00 Reel stops: 1-3
GM  2022-11-01 17:30:15.002 >> Command from game : 01
SAS 2022-11-01 17:30:15.066 >> SAS 1 Exception sent: 7E
SAS 2022-11-01 17:30:15.309 >> SAS 1 Exception sent: 7F
GM  2022-11-01 17:30:20.643 >> Payout request: 110,000.00 / 0.00 / 0.00
SAS 2022-11-01 17:30:20.643 >> Payout initiated by player: 110,000.00 / 0.00 / 0.00
SAS 2022-11-01 17:30:20.643 >> Handpay init Amount: 110,000.00/0.00/0.00
SAS 2022-11-01 17:30:20.687 >> Initiate ticket (0) Amount: 110,000.00
SAS 2022-11-01 17:30:20.687 >> Send ticket data to printer (0): 00-xxxx-xxxx-xxxx-9088 Amount: 110,000.00
PRN 2022-11-01 17:30:20.687 >> Ticket prepared: 00-xxxx-xxxx-xxxx-9088 Amount: 110,000.00
SAS 2022-11-01 17:30:20.714 >> Handpay redirected to Ticket Printer.
SAS 2022-11-01 17:30:20.810 >> SAS 1 Exception sent: 66
PRN 2022-11-01 17:30:21.330 >> Ticket print commmand sent
PRN 2022-11-01 17:30:21.440 >> Ticket printing
SAS 2022-11-01 17:30:21.554 >> Ticket #713 printed: 00-xxxx-xxxx-xxxx-9088 Amount: 110,000.00
SAS 2022-11-01 17:30:21.708 >> SAS 1 Exception sent: 3D
BA  2022-11-01 17:30:25.358 >> Banknote COP 20,000.00
BA  2022-11-01 17:30:25.358 >> Banknote inserted: 20,000.00 (#5)
SAS 2022-11-01 17:30:26.370 >> Banknote accepted: 20,000.00
SAS 2022-11-01 17:30:26.774 >> SAS 1 Exception sent: 4F
BA  2022-11-01 17:30:34.482 >> Banknote COP 20,000.00
BA  2022-11-01 17:30:34.482 >> Banknote inserted: 20,000.00 (#5)
SAS 2022-11-01 17:30:35.506 >> Banknote accepted: 20,000.00
SAS 2022-11-01 17:30:35.635 >> SAS 1 Exception sent: 4F
SAS 2022-11-01 17:31:16.358 >> Game 350432: Bets: 28,000.00 Num: 30 Win: 0.00 Jackpot: 0.00 Tip: 0.00
SAS 2022-11-01 17:31:16.414 >> SAS 1 Exception sent: 7E
GM  2022-11-01 17:31:16.487 >> Game played: Position: 0 Selected: 1 ID: 350432 Bets: 28,000.00 Win: 0.00 Tip: 0.00 Reel stops: 1-30
GM  2022-11-01 17:31:16.495 >> Command from game : 01
SAS 2022-11-01 17:31:16.637 >> SAS 1 Exception sent: 7F
BA  2022-11-01 17:31:27.007 >> Banknote COP 10,000.00
BA  2022-11-01 17:31:27.007 >> Banknote inserted: 10,000.00 (#4)
SAS 2022-11-01 17:31:28.030 >> Banknote accepted: 10,000.00
SAS 2022-11-01 17:31:28.082 >> SAS 1 Exception sent: 4F
SAS 2022-11-01 17:32:14.810 >> Game 350433: Bets: 22,000.00 Num: 20 Win: 0.00 Jackpot: 0.00 Tip: 0.00
SAS 2022-11-01 17:32:14.937 >> SAS 1 Exception sent: 7E
GM  2022-11-01 17:32:14.977 >> Game played: Position: 0 Selected: 1 ID: 350433 Bets: 22,000.00 Win: 0.00 Tip: 0.00 Reel stops: 1-20
GM  2022-11-01 17:32:14.977 >> Command from game : 01
SAS 2022-11-01 17:32:15.160 >> SAS 1 Exception sent: 7F
BA  2022-11-01 17:32:20.962 >> Banknote COP 20,000.00
BA  2022-11-01 17:32:20.962 >> Banknote inserted: 20,000.00 (#5)
SAS 2022-11-01 17:32:21.978 >> Banknote accepted: 20,000.00
SAS 2022-11-01 17:32:22.089 >> SAS 1 Exception sent: 4F
BA  2022-11-01 17:32:26.642 >> Banknote COP 20,000.00
BA  2022-11-01 17:32:26.642 >> Banknote inserted: 20,000.00 (#5)
SAS 2022-11-01 17:32:27.656 >> Banknote accepted: 20,000.00
SAS 2022-11-01 17:32:28.002 >> SAS 1 Exception sent: 4F
SAS 2022-11-01 17:33:14.376 >> Game 350434: Bets: 28,000.00 Num: 37 Win: 0.00 Jackpot: 0.00 Tip: 0.00
SAS 2022-11-01 17:33:14.440 >> SAS 1 Exception sent: 7E
GM  2022-11-01 17:33:14.542 >> Game played: Position: 0 Selected: 1 ID: 350434 Bets: 28,000.00 Win: 0.00 Tip: 0.00 Reel stops: 1-37
GM  2022-11-01 17:33:14.585 >> Command from game : 01
SAS 2022-11-01 17:33:14.930 >> SAS 1 Exception sent: 7F
BA  2022-11-01 17:33:18.953 >> Banknote or Ticket rejected
SAS 2022-11-01 17:33:19.025 >> SAS 1 Exception sent: 2B
BA  2022-11-01 17:33:23.424 >> Banknote COP 50,000.00
BA  2022-11-01 17:33:23.424 >> Banknote inserted: 50,000.00 (#6)
SAS 2022-11-01 17:33:24.438 >> Banknote accepted: 50,000.00
SAS 2022-11-01 17:33:24.504 >> SAS 1 Exception sent: 4F
SAS 2022-11-01 17:34:14.263 >> Game 350435: Bets: 30,000.00 Num: 10 Win: 180,000.00 Jackpot: 0.00 Tip: 0.00
SAS 2022-11-01 17:34:14.470 >> SAS 1 Exception sent: 7E
SAS 2022-11-01 17:34:14.693 >> SAS 1 Exception sent: 7F
GM  2022-11-01 17:34:14.732 >> Game played: Position: 0 Selected: 1 ID: 350435 Bets: 30,000.00 Win: 180,000.00 Tip: 0.00 Reel stops: 1-10
GM  2022-11-01 17:34:14.745 >> Command from game : 01
BA  2022-11-01 17:35:01.977 >> Ticket inserted: 00-xxxx-xxxx-xxxx-9088
SAS 2022-11-01 17:35:02.241 >> SAS 1 Exception sent: 67
SAS 2022-11-01 17:35:03.812 >> Ticket accepted: 00-3305-5809-2466-9088 Amount: 110,000.00
SAS 2022-11-01 17:35:03.851 >> SAS 1 Exception sent: 68
SAS 2022-11-01 17:35:18.878 >> Game 350436: Bets: 37,000.00 Num: 33 Win: 0.00 Jackpot: 0.00 Tip: 0.00
GM  2022-11-01 17:35:19.081 >> Game played: Position: 0 Selected: 1 ID: 350436 Bets: 37,000.00 Win: 0.00 Tip: 0.00 Reel stops: 1-33
GM  2022-11-01 17:35:19.081 >> Command from game : 01
SAS 2022-11-01 17:35:19.157 >> SAS 1 Exception sent: 7E
SAS 2022-11-01 17:35:19.380 >> SAS 1 Exception sent: 7F
SAS 2022-11-01 17:36:18.078 >> Game 350437: Bets: 21,000.00 Num: 6 Win: 0.00 Jackpot: 0.00 Tip: 0.00
GM  2022-11-01 17:36:18.217 >> Game played: Position: 0 Selected: 1 ID: 350437 Bets: 21,000.00 Win: 0.00 Tip: 0.00 Reel stops: 1-6
GM  2022-11-01 17:36:18.218 >> Command from game : 01
SAS 2022-11-01 17:36:18.444 >> SAS 1 Exception sent: 7E
SAS 2022-11-01 17:36:18.671 >> SAS 1 Exception sent: 7F
SAS 2022-11-01 17:37:24.055 >> Game 350438: Bets: 27,000.00 Num: 24 Win: 90,000.00 Jackpot: 0.00 Tip: 0.00
SAS 2022-11-01 17:37:24.105 >> SAS 1 Exception sent: 7E
GM  2022-11-01 17:37:24.268 >> Game played: Position: 0 Selected: 1 ID: 350438 Bets: 27,000.00 Win: 90,000.00 Tip: 0.00 Reel stops: 1-24
GM  2022-11-01 17:37:24.298 >> Command from game : 01
SAS 2022-11-01 17:37:24.555 >> SAS 1 Exception sent: 7F
SAS 2022-11-01 17:38:22.183 >> Game 350439: Bets: 37,000.00 Num: 14 Win: 0.00 Jackpot: 0.00 Tip: 0.00
SAS 2022-11-01 17:38:22.329 >> SAS 1 Exception sent: 7E
GM  2022-11-01 17:38:22.405 >> Game played: Position: 0 Selected: 1 ID: 350439 Bets: 37,000.00 Win: 0.00 Tip: 0.00 Reel stops: 1-14
GM  2022-11-01 17:38:22.405 >> Command from game : 01
SAS 2022-11-01 17:38:22.552 >> SAS 1 Exception sent: 7F
SAS 2022-11-01 17:39:25.131 >> Game 350440: Bets: 30,000.00 Num: 36 Win: 0.00 Jackpot: 0.00 Tip: 0.00
SAS 2022-11-01 17:39:25.279 >> SAS 1 Exception sent: 7E
GM  2022-11-01 17:39:25.305 >> Game played: Position: 0 Selected: 1 ID: 350440 Bets: 30,000.00 Win: 0.00 Tip: 0.00 Reel stops: 1-36
GM  2022-11-01 17:39:25.312 >> Command from game : 01
SAS 2022-11-01 17:39:25.502 >> SAS 1 Exception sent: 7F
SAS 2022-11-01 17:40:27.678 >> Game 350441: Bets: 24,000.00 Num: 8 Win: 0.00 Jackpot: 0.00 Tip: 0.00
SAS 2022-11-01 17:40:27.771 >> SAS 1 Exception sent: 7E
GM  2022-11-01 17:40:28.111 >> Game played: Position: 0 Selected: 1 ID: 350441 Bets: 24,000.00 Win: 0.00 Tip: 0.00 Reel stops: 1-8
GM  2022-11-01 17:40:28.125 >> Command from game : 01
SAS 2022-11-01 17:40:28.222 >> SAS 1 Exception sent: 7F
SAS 2022-11-01 17:41:26.446 >> Game 350442: Bets: 30,000.00 Num: 24 Win: 0.00 Jackpot: 0.00 Tip: 0.00
GM  2022-11-01 17:41:26.610 >> Game played: Position: 0 Selected: 1 ID: 350442 Bets: 30,000.00 Win: 0.00 Tip: 0.00 Reel stops: 1-24
GM  2022-11-01 17:41:26.610 >> Command from game : 01
SAS 2022-11-01 17:41:26.881 >> SAS 1 Exception sent: 7E
SAS 2022-11-01 17:41:27.104 >> SAS 1 Exception sent: 7F
SAS 2022-11-01 17:42:33.696 >> Game 350443: Bets: 35,000.00 Num: 15 Win: 0.00 Jackpot: 0.00 Tip: 0.00
GM  2022-11-01 17:42:33.844 >> Game played: Position: 0 Selected: 1 ID: 350443 Bets: 35,000.00 Win: 0.00 Tip: 0.00 Reel stops: 1-15
GM  2022-11-01 17:42:33.844 >> Command from game : 01
SAS 2022-11-01 17:42:33.847 >> SAS 1 Exception sent: 7E
SAS 2022-11-01 17:42:34.074 >> SAS 1 Exception sent: 7F
SAS 2022-11-01 17:43:33.945 >> Game 350444: Bets: 27,000.00 Num: 7 Win: 0.00 Jackpot: 0.00 Tip: 0.00
GM  2022-11-01 17:43:34.133 >> Game played: Position: 0 Selected: 1 ID: 350444 Bets: 27,000.00 Win: 0.00 Tip: 0.00 Reel stops: 1-7
GM  2022-11-01 17:43:34.133 >> Command from game : 01
SAS 2022-11-01 17:43:34.250 >> SAS 1 Exception sent: 7E
SAS 2022-11-01 17:43:34.701 >> SAS 1 Exception sent: 7F
SAS 2022-11-01 17:44:36.496 >> Game 350445: Bets: 34,000.00 Num: 34 Win: 0.00 Jackpot: 0.00 Tip: 0.00
SAS 2022-11-01 17:44:36.508 >> SAS 1 Exception sent: 7E
GM  2022-11-01 17:44:36.690 >> Game played: Position: 0 Selected: 1 ID: 350445 Bets: 34,000.00 Win: 0.00 Tip: 0.00 Reel stops: 1-34
GM  2022-11-01 17:44:36.696 >> Command from game : 01
SAS 2022-11-01 17:44:36.975 >> SAS 1 Exception sent: 7F
SAS 2022-11-01 17:45:36.313 >> Game 350446: Bets: 30,000.00 Num: 11 Win: 72,000.00 Jackpot: 0.00 Tip: 0.00
GM  2022-11-01 17:45:36.520 >> Game played: Position: 0 Selected: 1 ID: 350446 Bets: 30,000.00 Win: 72,000.00 Tip: 0.00 Reel stops: 1-11
GM  2022-11-01 17:45:36.544 >> Command from game : 01
SAS 2022-11-01 17:45:36.651 >> SAS 1 Exception sent: 7E
SAS 2022-11-01 17:45:36.874 >> SAS 1 Exception sent: 7F
SAS 2022-11-01 17:46:56.051 >> Game 350447: Bets: 39,000.00 Num: 29 Win: 90,000.00 Jackpot: 0.00 Tip: 0.00
SAS 2022-11-01 17:46:56.098 >> SAS 1 Exception sent: 7E
GM  2022-11-01 17:46:56.207 >> Game played: Position: 0 Selected: 1 ID: 350447 Bets: 39,000.00 Win: 90,000.00 Tip: 0.00 Reel stops: 1-29
GM  2022-11-01 17:46:56.207 >> Command from game : 01
SAS 2022-11-01 17:46:56.321 >> SAS 1 Exception sent: 7F
SAS 2022-11-01 17:47:56.168 >> Game 350448: Bets: 37,000.00 Num: 13 Win: 72,000.00 Jackpot: 0.00 Tip: 0.00
GM  2022-11-01 17:47:56.355 >> Game played: Position: 0 Selected: 1 ID: 350448 Bets: 37,000.00 Win: 72,000.00 Tip: 0.00 Reel stops: 1-13
GM  2022-11-01 17:47:56.361 >> Command from game : 01
SAS 2022-11-01 17:47:56.529 >> SAS 1 Exception sent: 7E
SAS 2022-11-01 17:47:56.753 >> SAS 1 Exception sent: 7F
SAS 2022-11-01 17:49:05.854 >> Game 350449: Bets: 38,000.00 Num: 12 Win: 90,000.00 Jackpot: 0.00 Tip: 0.00
SAS 2022-11-01 17:49:06.065 >> SAS 1 Exception sent: 7E
GM  2022-11-01 17:49:06.101 >> Game played: Position: 0 Selected: 1 ID: 350449 Bets: 38,000.00 Win: 90,000.00 Tip: 0.00 Reel stops: 1-12
GM  2022-11-01 17:49:06.112 >> Command from game : 01
SAS 2022-11-01 17:49:06.543 >> SAS 1 Exception sent: 7F
SAS 2022-11-01 17:50:07.056 >> Game 350450: Bets: 40,000.00 Num: 10 Win: 0.00 Jackpot: 0.00 Tip: 0.00
SAS 2022-11-01 17:50:07.083 >> SAS 1 Exception sent: 7E
GM  2022-11-01 17:50:07.220 >> Game played: Position: 0 Selected: 1 ID: 350450 Bets: 40,000.00 Win: 0.00 Tip: 0.00 Reel stops: 1-10
GM  2022-11-01 17:50:07.220 >> Command from game : 01
SAS 2022-11-01 17:50:07.542 >> SAS 1 Exception sent: 7F
GM  2022-11-01 17:50:12.558 >> Payout request: 250,000.00 / 0.00 / 0.00
SAS 2022-11-01 17:50:12.558 >> Payout initiated by player: 250,000.00 / 0.00 / 0.00
SAS 2022-11-01 17:50:12.558 >> Handpay init Amount: 250,000.00/0.00/0.00
SAS 2022-11-01 17:50:12.595 >> SAS 1 Exception sent: 66
SAS 2022-11-01 17:50:12.602 >> Initiate ticket (0) Amount: 250,000.00
SAS 2022-11-01 17:50:12.602 >> Send ticket data to printer (0): 00-xxxx-xxxx-xxxx-5512 Amount: 250,000.00
PRN 2022-11-01 17:50:12.603 >> Ticket prepared: 00-xxxx-xxxx-xxxx-5512 Amount: 250,000.00
SAS 2022-11-01 17:50:12.647 >> Handpay redirected to Ticket Printer.
PRN 2022-11-01 17:50:12.957 >> Ticket print commmand sent
PRN 2022-11-01 17:50:13.061 >> Ticket printing
SAS 2022-11-01 17:50:13.174 >> Ticket #714 printed: 00-xxxx-xxxx-xxxx-5512 Amount: 250,000.00
SAS 2022-11-01 17:50:13.493 >> SAS 1 Exception sent: 3D
BA  2022-11-01 17:50:19.066 >> Banknote or Ticket rejected
SAS 2022-11-01 17:50:19.210 >> SAS 1 Exception sent: 2B
BA  2022-11-01 17:50:26.367 >> Ticket inserted: 00-xxxx-xxxx-xxxx-5512
SAS 2022-11-01 17:50:26.718 >> SAS 1 Exception sent: 67
SAS 2022-11-01 17:50:28.811 >> Ticket accepted: 00-1555-6459-8308-5512 Amount: 250,000.00
SAS 2022-11-01 17:50:29.011 >> SAS 1 Exception sent: 68
SAS 2022-11-01 17:51:22.021 >> Game 350451: Bets: 34,000.00 Num: 23 Win: 54,000.00 Jackpot: 0.00 Tip: 0.00
GM  2022-11-01 17:51:22.176 >> Game played: Position: 0 Selected: 1 ID: 350451 Bets: 34,000.00 Win: 54,000.00 Tip: 0.00 Reel stops: 1-23
GM  2022-11-01 17:51:22.176 >> Command from game : 01
SAS 2022-11-01 17:51:22.217 >> SAS 1 Exception sent: 7E
SAS 2022-11-01 17:51:22.668 >> SAS 1 Exception sent: 7F
SAS 2022-11-01 17:52:29.889 >> Game 350452: Bets: 36,000.00 Num: 20 Win: 0.00 Jackpot: 0.00 Tip: 0.00
GM  2022-11-01 17:52:30.064 >> Game played: Position: 0 Selected: 1 ID: 350452 Bets: 36,000.00 Win: 0.00 Tip: 0.00 Reel stops: 1-20
GM  2022-11-01 17:52:30.064 >> Command from game : 01
SAS 2022-11-01 17:52:30.327 >> SAS 1 Exception sent: 7E
SAS 2022-11-01 17:52:30.779 >> SAS 1 Exception sent: 7F
SAS 2022-11-01 17:53:33.655 >> Game 350453: Bets: 34,000.00 Num: 14 Win: 108,000.00 Jackpot: 0.00 Tip: 0.00
SAS 2022-11-01 17:53:33.859 >> SAS 1 Exception sent: 7E
GM  2022-11-01 17:53:33.889 >> Game played: Position: 0 Selected: 1 ID: 350453 Bets: 34,000.00 Win: 108,000.00 Tip: 0.00 Reel stops: 1-14
GM  2022-11-01 17:53:33.900 >> Command from game : 01
SAS 2022-11-01 17:53:34.330 >> SAS 1 Exception sent: 7F
SAS 2022-11-01 17:54:49.810 >> Game 350454: Bets: 38,000.00 Num: 10 Win: 0.00 Jackpot: 0.00 Tip: 0.00
GM  2022-11-01 17:54:49.997 >> Game played: Position: 0 Selected: 1 ID: 350454 Bets: 38,000.00 Win: 0.00 Tip: 0.00 Reel stops: 1-10
GM  2022-11-01 17:54:49.997 >> Command from game : 01
SAS 2022-11-01 17:54:50.207 >> SAS 1 Exception sent: 7E
SAS 2022-11-01 17:54:50.435 >> SAS 1 Exception sent: 7F
SAS 2022-11-01 17:55:49.327 >> Game 350455: Bets: 30,000.00 Num: 16 Win: 0.00 Jackpot: 0.00 Tip: 0.00
GM  2022-11-01 17:55:49.521 >> Game played: Position: 0 Selected: 1 ID: 350455 Bets: 30,000.00 Win: 0.00 Tip: 0.00 Reel stops: 1-16
GM  2022-11-01 17:55:49.526 >> Command from game : 01
SAS 2022-11-01 17:55:49.745 >> SAS 1 Exception sent: 7E
SAS 2022-11-01 17:55:49.968 >> SAS 1 Exception sent: 7F
SAS 2022-11-01 17:56:58.797 >> Game 350456: Bets: 39,000.00 Num: 11 Win: 0.00 Jackpot: 0.00 Tip: 0.00
SAS 2022-11-01 17:56:58.979 >> SAS 1 Exception sent: 7E
GM  2022-11-01 17:56:59.114 >> Game played: Position: 0 Selected: 1 ID: 350456 Bets: 39,000.00 Win: 0.00 Tip: 0.00 Reel stops: 1-11
GM  2022-11-01 17:56:59.122 >> Command from game : 01
SAS 2022-11-01 17:56:59.202 >> SAS 1 Exception sent: 7F
SAS 2022-11-01 17:58:03.876 >> Game 350457: Bets: 41,000.00 Num: 15 Win: 0.00 Jackpot: 0.00 Tip: 0.00
SAS 2022-11-01 17:58:04.044 >> SAS 1 Exception sent: 7E
GM  2022-11-01 17:58:04.057 >> Game played: Position: 0 Selected: 1 ID: 350457 Bets: 41,000.00 Win: 0.00 Tip: 0.00 Reel stops: 1-15
GM  2022-11-01 17:58:04.082 >> Command from game : 01
SAS 2022-11-01 17:58:04.510 >> SAS 1 Exception sent: 7F
SAS 2022-11-01 17:59:10.910 >> Game 350458: Bets: 30,000.00 Num: 35 Win: 36,000.00 Jackpot: 0.00 Tip: 0.00
GM  2022-11-01 17:59:11.073 >> Game played: Position: 0 Selected: 1 ID: 350458 Bets: 30,000.00 Win: 36,000.00 Tip: 0.00 Reel stops: 1-35
GM  2022-11-01 17:59:11.074 >> Command from game : 01
SAS 2022-11-01 17:59:11.150 >> SAS 1 Exception sent: 7E
SAS 2022-11-01 17:59:11.601 >> SAS 1 Exception sent: 7F
